year,month,day,pcr_positive,pcr_tests,discharged,deaths
2020,3,11,0,0,0,0
2020,3,12,2,153,0,0
2020,3,13,0,8,0,0
2020,3,14,0,0,0,0
2020,3,15,0,0,0,0
2020,3,16,0,5,0,0
2020,3,17,0,1,0,0
2020,3,18,1,14,30,2
2020,3,19,0,0,1,0
2020,3,20,0,0,0,1
2020,3,21,0,0,0,1
2020,3,22,0,0,0,0
2020,3,23,0,27,0,0
2020,3,24,0,7,0,1
2020,3,25,0,4,0,0
2020,3,26,0,4,0,0
2020,3,27,1,11,9,1
2020,3,28,0,0,0,1
2020,3,29,0,0,0,1
2020,3,30,0,16,0,1
2020,3,31,5,17,0,6
2020,4,1,0,0,0,1
2020,4,2,2,45,0,0
2020,4,3,0,38,11,2
2020,4,4,0,0,0,5
2020,4,5,0,0,1,7
2020,4,6,5,13,0,0
2020,4,7,9,11,0,1
2020,4,8,2,32,0,4
2020,4,9,1,35,0,1
2020,4,10,2,37,0,4
2020,4,11,3,40,0,0
2020,4,12,3,37,0,2
2020,4,13,3,32,0,0
2020,4,14,2,22,0,5
2020,4,15,1,27,0,6
2020,4,16,1,28,0,3
2020,4,17,1,31,0,7
2020,4,18,1,34,0,5
2020,4,19,2,36,245,3
2020,4,20,1,39,303,6
2020,4,21,1,45,0,0
2020,4,22,0,45,297,4
2020,4,23,0,23,40,6
2020,4,24,0,41,15,6
2020,4,25,0,0,18,7
2020,4,26,0,0,24,0
2020,4,27,0,22,179,6
2020,4,28,0,19,88,2
2020,4,29,0,0,10,9
2020,4,30,0,52,153,3
2020,5,1,0,21,94,6
2020,5,2,0,8,32,15
2020,5,3,0,5,17,4
2020,5,4,0,0,22,5
2020,5,5,1,-13,23,0
2020,5,6,0,0,7,5
2020,5,7,0,109,313,5
2020,5,8,0,13,204,11
2020,5,9,0,0,16,9
2020,5,10,0,0,18,0
2020,5,11,0,38,15,9
2020,5,12,0,8,716,7
2020,5,13,3,21,138,7
2020,5,14,17,88,193,9
2020,5,15,2,48,154,7
2020,5,16,0,0,88,11
2020,5,17,1,159,38,7
2020,5,18,2,95,120,4
2020,5,19,1,73,216,3
2020,5,20,0,13,93,3
2020,5,21,1,15,132,9
2020,5,22,3,28,116,7
2020,5,23,1,7,40,8
2020,5,24,1,81,10,9
2020,5,25,1,3,72,8
2020,5,26,0,44,68,4
2020,5,27,0,23,34,4
2020,5,28,1,64,30,3
2020,5,29,0,28,58,3
2020,5,30,0,0,7,2
2020,5,31,0,0,2,1
2020,6,1,0,134,29,0
2020,6,2,0,54,47,1
2020,6,3,0,54,37,0
2020,6,4,0,57,25,1
2020,6,5,0,16,39,2
2020,6,6,0,0,8,2
2020,6,7,0,0,1,0
2020,6,8,0,73,20,0
2020,6,9,0,15,42,0
2020,6,10,0,10,27,0
2020,6,11,0,10,39,0
2020,6,12,0,13,32,2
2020,6,13,0,0,6,1
2020,6,14,0,0,4,0
2020,6,15,0,17,21,0
2020,6,16,0,5,49,2
2020,6,17,0,12,42,1
2020,6,18,0,9,39,0
2020,6,19,0,5,54,3
2020,6,20,0,0,13,0
2020,6,21,0,0,16,0
2020,6,22,0,14,48,1
2020,6,23,0,3,35,2
2020,6,24,0,3,32,2
2020,6,25,0,3,43,0
2020,6,26,0,5,37,0
2020,6,27,0,0,25,0
2020,6,28,0,0,26,0
2020,6,29,0,19,49,0
2020,6,30,0,8,52,0
2020,7,1,0,4,27,0
2020,7,2,0,5,66,0
2020,7,3,0,7,42,0
2020,7,4,0,0,35,0
2020,7,5,0,0,25,0
2020,7,6,0,9,64,0
2020,7,7,0,7,66,0
2020,7,8,0,9,104,0
2020,7,9,0,3,103,0
2020,7,10,0,6,115,0
2020,7,11,0,0,75,0
2020,7,12,0,0,54,0
2020,7,13,0,15,113,0
2020,7,14,0,4,136,0
2020,7,15,0,11,136,1
2020,7,16,0,11,163,0
2020,7,17,0,3,138,0
2020,7,18,0,0,94,0
2020,7,19,0,0,54,0
2020,7,20,0,0,255,1
