year,month,day,pcr_positive,pcr_tests,discharged,deaths
2020,3,11,0,0,0,0
2020,3,12,12,221,0,0
2020,3,13,0,8,0,0
2020,3,14,0,0,0,0
2020,3,15,0,0,0,0
2020,3,16,0,17,0,0
2020,3,17,0,10,0,0
2020,3,18,0,11,30,2
2020,3,19,0,3,1,0
2020,3,20,0,0,0,1
2020,3,21,0,2,0,1
2020,3,22,0,7,0,0
2020,3,23,0,2,0,0
2020,3,24,0,26,0,1
2020,3,25,0,6,0,0
2020,3,26,0,1,0,0
2020,3,27,1,18,9,1
2020,3,28,0,10,0,1
2020,3,29,1,11,0,1
2020,3,30,1,6,0,1
2020,3,31,1,15,0,6
2020,4,1,1,23,0,1
2020,4,2,2,26,0,0
2020,4,3,2,31,11,2
2020,4,4,3,28,0,5
2020,4,5,7,16,1,7
2020,4,6,3,67,0,0
2020,4,7,2,26,0,1
2020,4,8,1,55,0,4
2020,4,9,10,63,0,1
2020,4,10,5,72,0,4
2020,4,11,2,46,0,0
2020,4,12,2,30,0,2
2020,4,13,2,30,0,0
2020,4,14,2,48,0,5
2020,4,15,2,72,0,6
2020,4,16,1,45,0,3
2020,4,17,2,27,0,7
2020,4,18,1,22,0,5
2020,4,19,2,30,245,3
2020,4,20,1,36,303,6
2020,4,21,0,14,0,0
2020,4,22,1,49,297,4
2020,4,23,1,30,40,6
2020,4,24,0,34,15,6
2020,4,25,1,8,18,7
2020,4,26,1,42,24,0
2020,4,27,0,18,179,6
2020,4,28,0,6,88,2
2020,4,29,1,30,10,9
2020,4,30,0,41,153,3
2020,5,1,0,7,94,6
2020,5,2,0,15,32,15
2020,5,3,0,35,17,4
2020,5,4,0,0,22,5
2020,5,5,0,10,23,0
2020,5,6,0,14,7,5
2020,5,7,0,8,313,5
2020,5,8,0,-1,204,11
2020,5,9,0,0,16,9
2020,5,10,0,56,18,0
2020,5,11,0,1,15,9
2020,5,12,0,10,716,7
2020,5,13,0,10,138,7
2020,5,14,0,20,193,9
2020,5,15,0,26,154,7
2020,5,16,0,-26,88,11
2020,5,17,0,57,38,7
2020,5,18,0,3,120,4
2020,5,19,0,5,216,3
2020,5,20,0,14,93,3
2020,5,21,0,15,132,9
2020,5,22,0,14,116,7
2020,5,23,0,6,40,8
2020,5,24,0,11,10,9
2020,5,25,0,0,72,8
2020,5,26,0,4,68,4
2020,5,27,0,2,34,4
2020,5,28,0,15,30,3
2020,5,29,0,8,58,3
2020,5,30,0,7,7,2
2020,5,31,0,8,2,1
2020,6,1,0,5,29,0
2020,6,2,0,3,47,1
2020,6,3,0,11,37,0
2020,6,4,0,6,25,1
2020,6,5,0,6,39,2
2020,6,6,0,8,8,2
2020,6,7,0,13,1,0
2020,6,8,0,3,20,0
2020,6,9,0,0,42,0
2020,6,10,0,15,27,0
2020,6,11,0,10,39,0
2020,6,12,0,6,32,2
2020,6,13,0,5,6,1
2020,6,14,0,9,4,0
2020,6,15,0,0,21,0
2020,6,16,0,0,49,2
2020,6,17,0,12,42,1
2020,6,18,0,8,39,0
2020,6,19,0,4,54,3
2020,6,20,0,2,13,0
2020,6,21,0,7,16,0
2020,6,22,0,3,48,1
2020,6,23,0,6,35,2
2020,6,24,0,8,32,2
2020,6,25,0,3,43,0
2020,6,26,0,7,37,0
2020,6,27,0,5,25,0
2020,6,28,0,11,26,0
2020,6,29,0,2,49,0
2020,6,30,0,0,52,0
2020,7,1,0,6,27,0
2020,7,2,0,3,66,0
2020,7,3,0,5,42,0
2020,7,4,0,6,35,0
2020,7,5,0,5,25,0
2020,7,6,0,2,64,0
2020,7,7,0,0,66,0
2020,7,8,0,8,104,0
2020,7,9,0,0,103,0
2020,7,10,0,8,115,0
2020,7,11,0,1,75,0
2020,7,12,0,10,54,0
2020,7,13,1,3,113,0
2020,7,14,0,0,136,0
2020,7,15,0,23,136,1
2020,7,16,1,38,163,0
2020,7,17,0,14,138,0
2020,7,18,0,13,94,0
2020,7,19,0,14,54,0
2020,7,20,0,0,255,1
