year,month,day,pcr_positive,pcr_tests,discharged,deaths
2020,3,11,0,0,0,0
2020,3,12,1,138,0,0
2020,3,13,0,10,0,0
2020,3,14,0,0,0,0
2020,3,15,0,0,0,0
2020,3,16,0,5,0,0
2020,3,17,0,2,0,0
2020,3,18,0,8,30,2
2020,3,19,2,4,1,0
2020,3,20,2,31,0,1
2020,3,21,2,55,0,1
2020,3,22,2,83,0,0
2020,3,23,3,137,0,0
2020,3,24,6,270,0,1
2020,3,25,7,428,0,0
2020,3,26,0,218,0,0
2020,3,27,0,0,9,1
2020,3,28,1,64,0,1
2020,3,29,2,47,0,1
2020,3,30,1,34,0,1
2020,3,31,1,13,0,6
2020,4,1,0,0,0,1
2020,4,2,1,63,0,0
2020,4,3,1,29,11,2
2020,4,4,0,0,0,5
2020,4,5,0,0,1,7
2020,4,6,1,104,0,0
2020,4,7,0,19,0,1
2020,4,8,9,45,0,4
2020,4,9,0,128,0,1
2020,4,10,1,35,0,4
2020,4,11,0,0,0,0
2020,4,12,0,0,0,2
2020,4,13,1,91,0,0
2020,4,14,0,11,0,5
2020,4,15,7,67,0,6
2020,4,16,0,86,0,3
2020,4,17,4,74,0,7
2020,4,18,0,27,0,5
2020,4,19,0,0,245,3
2020,4,20,1,231,303,6
2020,4,21,5,34,0,0
2020,4,22,0,61,297,4
2020,4,23,0,158,40,6
2020,4,24,0,0,15,6
2020,4,25,0,0,18,7
2020,4,26,0,0,24,0
2020,4,27,0,129,179,6
2020,4,28,0,26,88,2
2020,4,29,0,0,10,9
2020,4,30,0,92,153,3
2020,5,1,0,18,94,6
2020,5,2,0,0,32,15
2020,5,3,0,0,17,4
2020,5,4,0,0,22,5
2020,5,5,0,0,23,0
2020,5,6,0,0,7,5
2020,5,7,0,174,313,5
2020,5,8,0,33,204,11
2020,5,9,0,33,16,9
2020,5,10,0,67,18,0
2020,5,11,0,17,15,9
2020,5,12,0,41,716,7
2020,5,13,0,50,138,7
2020,5,14,0,0,193,9
2020,5,15,0,54,154,7
2020,5,16,0,24,88,11
2020,5,17,0,9,38,7
2020,5,18,0,15,120,4
2020,5,19,0,36,216,3
2020,5,20,0,33,93,3
2020,5,21,0,15,132,9
2020,5,22,0,25,116,7
2020,5,23,0,27,40,8
2020,5,24,0,8,10,9
2020,5,25,0,11,72,8
2020,5,26,0,30,68,4
2020,5,27,0,31,34,4
2020,5,28,0,19,30,3
2020,5,29,0,36,58,3
2020,5,30,0,17,7,2
2020,5,31,0,8,2,1
2020,6,1,0,15,29,0
2020,6,2,0,47,47,1
2020,6,3,0,31,37,0
2020,6,4,0,46,25,1
2020,6,5,0,42,39,2
2020,6,6,0,33,8,2
2020,6,7,0,15,1,0
2020,6,8,0,14,20,0
2020,6,9,0,47,42,0
2020,6,10,0,31,27,0
2020,6,11,0,33,39,0
2020,6,12,0,22,32,2
2020,6,13,0,36,6,1
2020,6,14,0,9,4,0
2020,6,15,0,12,21,0
2020,6,16,0,41,49,2
2020,6,17,0,38,42,1
2020,6,18,0,31,39,0
2020,6,19,0,25,54,3
2020,6,20,0,27,13,0
2020,6,21,0,9,16,0
2020,6,22,0,22,48,1
2020,6,23,0,49,35,2
2020,6,24,0,28,32,2
2020,6,25,0,57,43,0
2020,6,26,0,24,37,0
2020,6,27,0,31,25,0
2020,6,28,0,4,26,0
2020,6,29,0,27,49,0
2020,6,30,0,49,52,0
2020,7,1,0,47,27,0
2020,7,2,0,47,66,0
2020,7,3,0,41,42,0
2020,7,4,0,21,35,0
2020,7,5,0,2,25,0
2020,7,6,0,39,64,0
2020,7,7,0,51,66,0
2020,7,8,0,88,104,0
2020,7,9,0,61,103,0
2020,7,10,0,33,115,0
2020,7,11,0,12,75,0
2020,7,12,0,6,54,0
2020,7,13,0,59,113,0
2020,7,14,0,67,136,0
2020,7,15,0,65,136,1
2020,7,16,0,67,163,0
2020,7,17,0,55,138,0
2020,7,18,0,31,94,0
2020,7,19,0,14,54,0
2020,7,20,0,0,255,1
