year,month,day,pcr_positive,pcr_tests,discharged,deaths
2020,3,11,0,0,0,0
2020,3,12,0,141,0,0
2020,3,13,0,0,0,0
2020,3,14,0,0,0,0
2020,3,15,0,0,0,0
2020,3,16,0,19,0,0
2020,3,17,0,6,0,0
2020,3,18,0,9,30,2
2020,3,19,0,6,1,0
2020,3,20,0,0,0,1
2020,3,21,0,4,0,1
2020,3,22,0,9,0,0
2020,3,23,0,11,0,0
2020,3,24,1,14,0,1
2020,3,25,0,14,0,0
2020,3,26,0,10,0,0
2020,3,27,0,13,9,1
2020,3,28,1,17,0,1
2020,3,29,1,17,0,1
2020,3,30,1,19,0,1
2020,3,31,0,12,0,6
2020,4,1,0,0,0,1
2020,4,2,3,44,0,0
2020,4,3,1,36,11,2
2020,4,4,1,24,0,5
2020,4,5,0,21,1,7
2020,4,6,1,21,0,0
2020,4,7,2,29,0,1
2020,4,8,3,38,0,4
2020,4,9,1,30,0,1
2020,4,10,0,31,0,4
2020,4,11,0,0,0,0
2020,4,12,0,0,0,2
2020,4,13,0,74,0,0
2020,4,14,0,19,0,5
2020,4,15,0,34,0,6
2020,4,16,2,26,0,3
2020,4,17,0,27,0,7
2020,4,18,0,0,0,5
2020,4,19,1,112,245,3
2020,4,20,0,43,303,6
2020,4,21,0,62,0,0
2020,4,22,0,0,297,4
2020,4,23,0,23,40,6
2020,4,24,0,24,15,6
2020,4,25,0,18,18,7
2020,4,26,1,16,24,0
2020,4,27,1,14,179,6
2020,4,28,0,14,88,2
2020,4,29,1,13,10,9
2020,4,30,0,10,153,3
2020,5,1,1,7,94,6
2020,5,2,0,0,32,15
2020,5,3,0,0,17,4
2020,5,4,0,0,22,5
2020,5,5,0,0,23,0
2020,5,6,0,0,7,5
2020,5,7,0,172,313,5
2020,5,8,0,18,204,11
2020,5,9,1,23,16,9
2020,5,10,0,28,18,0
2020,5,11,0,5,15,9
2020,5,12,1,20,716,7
2020,5,13,0,37,138,7
2020,5,14,0,32,193,9
2020,5,15,0,17,154,7
2020,5,16,0,53,88,11
2020,5,17,0,19,38,7
2020,5,18,0,5,120,4
2020,5,19,0,10,216,3
2020,5,20,0,19,93,3
2020,5,21,0,18,132,9
2020,5,22,0,14,116,7
2020,5,23,0,22,40,8
2020,5,24,0,3,10,9
2020,5,25,0,0,72,8
2020,5,26,0,9,68,4
2020,5,27,0,9,34,4
2020,5,28,0,13,30,3
2020,5,29,0,12,58,3
2020,5,30,0,9,7,2
2020,5,31,0,7,2,1
2020,6,1,0,4,29,0
2020,6,2,0,7,47,1
2020,6,3,0,15,37,0
2020,6,4,0,7,25,1
2020,6,5,0,9,39,2
2020,6,6,0,10,8,2
2020,6,7,0,14,1,0
2020,6,8,0,3,20,0
2020,6,9,0,6,42,0
2020,6,10,0,10,27,0
2020,6,11,0,10,39,0
2020,6,12,0,9,32,2
2020,6,13,0,8,6,1
2020,6,14,0,10,4,0
2020,6,15,0,6,21,0
2020,6,16,0,3,49,2
2020,6,17,0,13,42,1
2020,6,18,0,4,39,0
2020,6,19,0,7,54,3
2020,6,20,0,3,13,0
2020,6,21,0,0,16,0
2020,6,22,0,2,48,1
2020,6,23,0,5,35,2
2020,6,24,1,12,32,2
2020,6,25,0,9,43,0
2020,6,26,0,9,37,0
2020,6,27,0,6,25,0
2020,6,28,0,14,26,0
2020,6,29,0,6,49,0
2020,6,30,0,9,52,0
2020,7,1,0,8,27,0
2020,7,2,2,11,66,0
2020,7,3,0,10,42,0
2020,7,4,0,12,35,0
2020,7,5,0,7,25,0
2020,7,6,0,5,64,0
2020,7,7,0,11,66,0
2020,7,8,0,15,104,0
2020,7,9,0,12,103,0
2020,7,10,0,5,115,0
2020,7,11,0,0,75,0
2020,7,12,0,7,54,0
2020,7,13,0,8,113,0
2020,7,14,0,10,136,0
2020,7,15,2,10,136,1
2020,7,16,2,28,163,0
2020,7,17,2,46,138,0
2020,7,18,2,146,94,0
2020,7,19,5,55,54,0
2020,7,20,0,0,255,1
