year,month,day,pcr_positive,pcr_tests,discharged,deaths
2020,3,11,1,62,0,0
2020,3,12,0,5,0,0
2020,3,13,0,3,0,0
2020,3,14,0,0,0,0
2020,3,15,0,0,0,0
2020,3,16,0,3,0,0
2020,3,17,0,6,0,0
2020,3,18,0,0,30,2
2020,3,19,0,4,1,0
2020,3,20,0,0,0,1
2020,3,21,0,0,0,1
2020,3,22,0,0,0,0
2020,3,23,0,10,0,0
2020,3,24,0,3,0,1
2020,3,25,0,3,0,0
2020,3,26,0,5,0,0
2020,3,27,0,6,9,1
2020,3,28,0,0,0,1
2020,3,29,0,0,0,1
2020,3,30,0,13,0,1
2020,3,31,2,21,0,6
2020,4,1,0,0,0,1
2020,4,2,0,12,0,0
2020,4,3,0,8,11,2
2020,4,4,0,0,0,5
2020,4,5,0,0,1,7
2020,4,6,0,10,0,0
2020,4,7,0,19,0,1
2020,4,8,0,13,0,4
2020,4,9,0,11,0,1
2020,4,10,0,11,0,4
2020,4,11,0,0,0,0
2020,4,12,0,0,0,2
2020,4,13,0,8,0,0
2020,4,14,0,12,0,5
2020,4,15,0,11,0,6
2020,4,16,0,18,0,3
2020,4,17,0,21,0,7
2020,4,18,0,0,0,5
2020,4,19,0,38,245,3
2020,4,20,0,0,303,6
2020,4,21,2,5,0,0
2020,4,22,0,12,297,4
2020,4,23,0,15,40,6
2020,4,24,0,18,15,6
2020,4,25,0,0,18,7
2020,4,26,0,0,24,0
2020,4,27,0,37,179,6
2020,4,28,0,17,88,2
2020,4,29,0,0,10,9
2020,4,30,0,19,153,3
2020,5,1,0,10,94,6
2020,5,2,0,0,32,15
2020,5,3,0,0,17,4
2020,5,4,0,0,22,5
2020,5,5,0,0,23,0
2020,5,6,0,0,7,5
2020,5,7,0,49,313,5
2020,5,8,0,51,204,11
2020,5,9,0,13,16,9
2020,5,10,0,15,18,0
2020,5,11,0,14,15,9
2020,5,12,0,24,716,7
2020,5,13,0,0,138,7
2020,5,14,0,0,193,9
2020,5,15,0,28,154,7
2020,5,16,0,0,88,11
2020,5,17,0,6,38,7
2020,5,18,0,4,120,4
2020,5,19,0,2,216,3
2020,5,20,0,9,93,3
2020,5,21,0,8,132,9
2020,5,22,0,7,116,7
2020,5,23,0,4,40,8
2020,5,24,0,5,10,9
2020,5,25,0,0,72,8
2020,5,26,0,3,68,4
2020,5,27,0,8,34,4
2020,5,28,0,7,30,3
2020,5,29,0,8,58,3
2020,5,30,0,5,7,2
2020,5,31,0,2,2,1
2020,6,1,0,3,29,0
2020,6,2,0,1,47,1
2020,6,3,0,7,37,0
2020,6,4,0,9,25,1
2020,6,5,0,7,39,2
2020,6,6,0,5,8,2
2020,6,7,0,5,1,0
2020,6,8,0,4,20,0
2020,6,9,0,2,42,0
2020,6,10,0,5,27,0
2020,6,11,0,9,39,0
2020,6,12,0,8,32,2
2020,6,13,0,6,6,1
2020,6,14,0,7,4,0
2020,6,15,0,5,21,0
2020,6,16,0,3,49,2
2020,6,17,0,2,42,1
2020,6,18,0,5,39,0
2020,6,19,0,4,54,3
2020,6,20,0,6,13,0
2020,6,21,0,1,16,0
2020,6,22,0,0,48,1
2020,6,23,0,3,35,2
2020,6,24,0,3,32,2
2020,6,25,0,3,43,0
2020,6,26,1,4,37,0
2020,6,27,0,11,25,0
2020,6,28,0,21,26,0
2020,6,29,0,10,49,0
2020,6,30,0,8,52,0
2020,7,1,0,17,27,0
2020,7,2,0,10,66,0
2020,7,3,0,8,42,0
2020,7,4,0,10,35,0
2020,7,5,0,2,25,0
2020,7,6,0,5,64,0
2020,7,7,3,13,66,0
2020,7,8,0,45,104,0
2020,7,9,0,35,103,0
2020,7,10,1,51,115,0
2020,7,11,0,40,75,0
2020,7,12,0,39,54,0
2020,7,13,0,17,113,0
2020,7,14,0,27,136,0
2020,7,15,0,41,136,1
2020,7,16,0,25,163,0
2020,7,17,0,21,138,0
2020,7,18,0,33,94,0
2020,7,19,0,68,54,0
2020,7,20,0,15,255,1
