year,month,day,pcr_positive,pcr_tests,discharged,deaths,coded_time, num_days
2020,2,8,0,0,0,0,38,0
2020,2,9,0,0,0,0,39,0
2020,2,10,0,0,0,0,40,0
2020,2,11,0,0,0,0,41,0
2020,2,12,0,0,0,0,42,0
2020,2,13,0,0,0,0,43,0
2020,2,14,0,0,0,0,44,0
2020,2,15,0,0,0,0,45,0
2020,2,16,0,0,0,0,46,0
2020,2,17,0,0,0,0,47,0
2020,2,18,0,0,0,0,48,0
2020,2,19,0,0,0,0,49,0
2020,2,20,0,0,0,0,50,0
2020,2,21,0,0,0,0,51,0
2020,2,22,0,0,0,0,52,0
2020,2,23,0,0,0,0,53,0
2020,2,24,0,0,0,0,54,0
2020,2,25,0,0,0,0,55,0
2020,2,26,0,0,0,0,56,0
2020,2,27,0,0,0,0,57,0
2020,2,28,0,0,0,0,58,0
2020,2,29,0,0,0,0,59,0
2020,3,1,0,0,0,0,60,0
2020,3,2,0,0,0,0,61,0
2020,3,3,0,0,0,0,62,0
2020,3,4,0,0,0,0,63,0
2020,3,5,2,40,0,0,64,1
2020,3,6,2,40,0,0,65,1
2020,3,7,2,40,0,0,66,1
2020,3,8,2,40,0,0,67,1
2020,3,9,2,40,0,0,68,1
2020,3,10,2,40,0,0,69,1
2020,3,11,2,40,0,0,70,1
2020,3,12,0,69,1,0,71,5
2020,3,13,0,69,1,0,72,5
2020,3,14,0,69,1,0,73,5
2020,3,15,0,69,1,0,74,5
2020,3,16,0,69,1,0,75,5
2020,3,17,0,69,1,0,76,5
2020,3,18,0,69,1,0,77,5
2020,3,19,0,95,0,0,78,4
2020,3,20,0,95,0,0,79,4
2020,3,21,0,95,0,0,80,4
2020,3,22,0,95,0,0,81,4
2020,3,23,0,95,0,0,82,4
2020,3,24,0,95,0,0,83,4
2020,3,25,0,95,0,0,84,4
2020,3,26,4,57,1,0,85,4
2020,3,27,4,57,1,0,86,4
2020,3,28,4,57,1,0,87,4
2020,3,29,4,57,1,0,88,4
2020,3,30,4,57,1,0,89,4
2020,3,31,4,57,1,0,90,4
2020,4,1,4,57,1,0,91,4
2020,4,2,3,202,0,0,92,5
2020,4,3,3,202,0,0,93,5
2020,4,4,3,202,0,0,94,5
2020,4,5,3,202,0,0,95,5
2020,4,6,3,202,0,0,96,5
2020,4,7,3,202,0,0,97,5
2020,4,8,3,202,0,0,98,5
2020,4,9,2,203,3,0,99,5
2020,4,10,2,203,3,0,100,5
2020,4,11,2,203,3,0,101,5
2020,4,12,2,203,3,0,102,5
2020,4,13,2,203,3,0,103,5
2020,4,14,2,203,3,0,104,5
2020,4,15,2,203,3,0,105,5
2020,4,16,0,101,0,0,106,5
2020,4,17,0,101,0,0,107,5
2020,4,18,0,101,0,0,108,5
2020,4,19,0,101,0,0,109,5
2020,4,20,0,101,0,0,110,5
2020,4,21,0,101,0,0,111,5
2020,4,22,0,101,0,0,112,5
2020,4,23,0,60,2,0,113,4
2020,4,24,0,60,2,0,114,4
2020,4,25,0,60,2,0,115,4
2020,4,26,0,60,2,0,116,4
2020,4,27,0,60,2,0,117,4
2020,4,28,0,60,2,0,118,4
2020,4,29,0,60,2,0,119,4
2020,4,30,0,25,6,0,120,2
2020,5,1,0,25,6,0,121,2
2020,5,2,0,25,6,0,122,2
2020,5,3,0,25,6,0,123,2
2020,5,4,0,25,6,0,124,2
2020,5,5,0,25,6,0,125,2
2020,5,6,0,25,6,0,126,2
2020,5,7,0,65,2,0,127,3
2020,5,8,0,65,2,0,128,3
2020,5,9,0,65,2,0,129,3
2020,5,10,0,65,2,0,130,3
2020,5,11,0,65,2,0,131,3
2020,5,12,0,65,2,0,132,3
2020,5,13,0,65,2,0,133,3
2020,5,14,0,16,1,0,134,5
2020,5,15,0,16,1,0,135,5
2020,5,16,0,16,1,0,136,5
2020,5,17,0,16,1,0,137,5
2020,5,18,0,16,1,0,138,5
2020,5,19,0,16,1,0,139,5
2020,5,20,0,16,1,0,140,5
2020,5,21,0,15,0,0,141,5
2020,5,22,0,15,0,0,142,5
2020,5,23,0,15,0,0,143,5
2020,5,24,0,15,0,0,144,5
2020,5,25,0,15,0,0,145,5
2020,5,26,0,15,0,0,146,5
2020,5,27,0,15,0,0,147,5
2020,5,28,0,11,0,0,148,4
2020,5,29,0,11,0,0,149,4
2020,5,30,0,11,0,0,150,4
2020,5,31,0,11,0,0,151,4
2020,6,1,0,11,0,0,152,4
2020,6,2,0,11,0,0,153,4
2020,6,3,0,11,0,0,154,4
2020,6,4,0,17,0,0,155,4
2020,6,5,0,17,0,0,156,4
2020,6,6,0,17,0,0,157,4
2020,6,7,0,17,0,0,158,4
2020,6,8,0,17,0,0,159,4
2020,6,9,0,17,0,0,160,4
2020,6,10,0,17,0,0,161,4
2020,6,11,0,12,0,0,162,5
2020,6,12,0,12,0,0,163,5
2020,6,13,0,12,0,0,164,5
2020,6,14,0,12,0,0,165,5
2020,6,15,0,12,0,0,166,5
2020,6,16,0,12,0,0,167,5
2020,6,17,0,12,0,0,168,5
2020,6,18,0,16,0,0,169,5
2020,6,19,0,16,0,0,170,5
2020,6,20,0,16,0,0,171,5
2020,6,21,0,16,0,0,172,5
2020,6,22,0,16,0,0,173,5
2020,6,23,0,16,0,0,174,5
2020,6,24,0,16,0,0,175,5
2020,6,25,0,12,0,0,176,5
2020,6,26,0,12,0,0,177,5
2020,6,27,0,12,0,0,178,5
2020,6,28,0,12,0,0,179,5
2020,6,29,0,12,0,0,180,5
2020,6,30,0,12,0,0,181,5
2020,7,1,0,12,0,0,182,5
2020,7,2,0,10,0,0,183,4
2020,7,3,0,10,0,0,184,4
2020,7,4,0,10,0,0,185,4
2020,7,5,0,10,0,0,186,4
2020,7,6,0,10,0,0,187,4
2020,7,7,0,10,0,0,188,4
2020,7,8,0,10,0,0,189,4
2020,7,9,0,16,0,0,190,3
2020,7,10,0,16,0,0,191,3
2020,7,11,0,16,0,0,192,3
2020,7,12,0,16,0,0,193,3
2020,7,13,0,16,0,0,194,3
2020,7,14,0,16,0,0,195,3
2020,7,15,0,16,0,0,196,3
2020,7,16,0,31,0,0,197,4
2020,7,17,0,31,0,0,198,4
2020,7,18,0,31,0,0,199,4
2020,7,19,0,31,0,0,200,4
2020,7,20,0,31,0,0,201,4
2020,7,21,0,31,0,0,202,4
2020,7,22,0,31,0,0,203,4
2020,7,23,0,61,0,0,204,3
2020,7,24,0,61,0,0,205,3
2020,7,25,0,61,0,0,206,3
2020,7,26,0,61,0,0,207,3
2020,7,27,0,61,0,0,208,3
2020,7,28,0,61,0,0,209,3
2020,7,29,0,61,0,0,210,3
2020,7,30,0,74,0,0,211,5
2020,7,31,0,74,0,0,212,5
2020,8,1,0,74,0,0,213,5
2020,8,2,0,74,0,0,214,5
2020,8,3,0,74,0,0,215,5
2020,8,4,0,74,0,0,216,5
2020,8,5,0,74,0,0,217,5
2020,8,6,0,221,4,0,218,2
2020,8,7,0,221,4,0,219,2
2020,8,8,0,221,4,0,220,2
2020,8,9,0,221,4,0,221,2
2020,8,10,0,221,4,0,222,2
2020,8,11,0,221,4,0,223,2
2020,8,12,0,221,4,0,224,2
2020,8,13,4,194,11,0,225,4
2020,8,14,4,194,11,0,226,4
2020,8,15,4,194,11,0,227,4
2020,8,16,4,194,11,0,228,4
2020,8,17,4,194,11,0,229,4
2020,8,18,4,194,11,0,230,4
2020,8,19,4,194,11,0,231,4
2020,8,20,4,100,10,0,232,5
2020,8,21,4,100,10,0,233,5
2020,8,22,4,100,10,0,234,5
2020,8,23,4,100,10,0,235,5
2020,8,24,4,100,10,0,236,5
2020,8,25,4,100,10,0,237,5
2020,8,26,4,100,10,0,238,5
2020,8,27,0,88,4,0,239,5
2020,8,28,0,88,4,0,240,5
2020,8,29,0,88,4,0,241,5
2020,8,30,0,88,4,0,242,5
2020,8,31,0,88,4,0,243,5
2020,9,1,0,88,4,0,244,5
2020,9,2,0,88,4,0,245,5
2020,9,3,1,49,3,0,246,5
2020,9,4,1,49,3,0,247,5
2020,9,5,1,49,3,0,248,5
2020,9,6,1,49,3,0,249,5
2020,9,7,1,49,3,0,250,5
2020,9,8,1,49,3,0,251,5
2020,9,9,1,49,3,0,252,5
2020,9,10,1,46,2,0,253,5
2020,9,11,1,46,2,0,254,5
2020,9,12,1,46,2,0,255,5
2020,9,13,1,46,2,0,256,5
2020,9,14,1,46,2,0,257,5
2020,9,15,1,46,2,0,258,5
2020,9,16,1,46,2,0,259,5
2020,9,17,0,180,1,0,260,2
2020,9,18,0,180,1,0,261,2
2020,9,19,0,180,1,0,262,2
2020,9,20,0,180,1,0,263,2
2020,9,21,0,180,1,0,264,2
2020,9,22,0,180,1,0,265,2
2020,9,23,0,180,1,0,266,2
2020,9,24,0,68,2,0,267,5
2020,9,25,0,68,2,0,268,5
2020,9,26,0,68,2,0,269,5
2020,9,27,0,68,2,0,270,5
2020,9,28,0,68,2,0,271,5
2020,9,29,0,68,2,0,272,5
2020,9,30,0,68,2,0,273,5
