year,month,day,pcr_positive,pcr_tests,discharged,deaths,coded_time, num_days
2020,2,8,0,0,0,0,38,0
2020,2,9,0,0,0,0,39,0
2020,2,10,0,0,0,0,40,0
2020,2,11,0,0,0,0,41,0
2020,2,12,0,0,0,0,42,0
2020,2,13,0,0,0,0,43,0
2020,2,14,0,0,0,0,44,0
2020,2,15,0,0,0,0,45,0
2020,2,16,0,0,0,0,46,0
2020,2,17,0,0,0,0,47,0
2020,2,18,0,0,0,0,48,0
2020,2,19,0,0,0,0,49,0
2020,2,20,0,0,0,0,50,0
2020,2,21,0,0,0,0,51,0
2020,2,22,0,0,0,0,52,0
2020,2,23,0,0,0,0,53,0
2020,2,24,0,0,0,0,54,0
2020,2,25,0,0,0,0,55,0
2020,2,26,0,0,0,0,56,0
2020,2,27,0,0,0,0,57,0
2020,2,28,0,0,0,0,58,0
2020,2,29,0,0,0,0,59,0
2020,3,1,0,0,0,0,60,0
2020,3,2,0,0,0,0,61,0
2020,3,3,0,0,0,0,62,0
2020,3,4,0,0,0,0,63,0
2020,3,5,1,93,0,0,64,1
2020,3,6,1,93,0,0,65,1
2020,3,7,1,93,0,0,66,1
2020,3,8,1,93,0,0,67,1
2020,3,9,1,93,0,0,68,1
2020,3,10,1,93,0,0,69,1
2020,3,11,1,93,0,0,70,1
2020,3,12,0,34,0,0,71,5
2020,3,13,0,34,0,0,72,5
2020,3,14,0,34,0,0,73,5
2020,3,15,0,34,0,0,74,5
2020,3,16,0,34,0,0,75,5
2020,3,17,0,34,0,0,76,5
2020,3,18,0,34,0,0,77,5
2020,3,19,0,40,0,0,78,4
2020,3,20,0,40,0,0,79,4
2020,3,21,0,40,0,0,80,4
2020,3,22,0,40,0,0,81,4
2020,3,23,0,40,0,0,82,4
2020,3,24,0,40,0,0,83,4
2020,3,25,0,40,0,0,84,4
2020,3,26,0,36,1,0,85,3
2020,3,27,0,36,1,0,86,3
2020,3,28,0,36,1,0,87,3
2020,3,29,0,36,1,0,88,3
2020,3,30,0,36,1,0,89,3
2020,3,31,0,36,1,0,90,3
2020,4,1,0,36,1,0,91,3
2020,4,2,16,208,0,0,92,5
2020,4,3,16,208,0,0,93,5
2020,4,4,16,208,0,0,94,5
2020,4,5,16,208,0,0,95,5
2020,4,6,16,208,0,0,96,5
2020,4,7,16,208,0,0,97,5
2020,4,8,16,208,0,0,98,5
2020,4,9,9,374,2,0,99,5
2020,4,10,9,374,2,0,100,5
2020,4,11,9,374,2,0,101,5
2020,4,12,9,374,2,0,102,5
2020,4,13,9,374,2,0,103,5
2020,4,14,9,374,2,0,104,5
2020,4,15,9,374,2,0,105,5
2020,4,16,14,452,12,0,106,5
2020,4,17,14,452,12,0,107,5
2020,4,18,14,452,12,0,108,5
2020,4,19,14,452,12,0,109,5
2020,4,20,14,452,12,0,110,5
2020,4,21,14,452,12,0,111,5
2020,4,22,14,452,12,0,112,5
2020,4,23,5,426,4,0,113,6
2020,4,24,5,426,4,0,114,6
2020,4,25,5,426,4,0,115,6
2020,4,26,5,426,4,0,116,6
2020,4,27,5,426,4,0,117,6
2020,4,28,5,426,4,0,118,6
2020,4,29,5,426,4,0,119,6
2020,4,30,3,430,15,0,120,4
2020,5,1,3,430,15,0,121,4
2020,5,2,3,430,15,0,122,4
2020,5,3,3,430,15,0,123,4
2020,5,4,3,430,15,0,124,4
2020,5,5,3,430,15,0,125,4
2020,5,6,3,430,15,0,126,4
2020,5,7,2,614,23,0,127,7
2020,5,8,2,614,23,0,128,7
2020,5,9,2,614,23,0,129,7
2020,5,10,2,614,23,0,130,7
2020,5,11,2,614,23,0,131,7
2020,5,12,2,614,23,0,132,7
2020,5,13,2,614,23,0,133,7
2020,5,14,0,967,11,0,134,6
2020,5,15,0,967,11,0,135,6
2020,5,16,0,967,11,0,136,6
2020,5,17,0,967,11,0,137,6
2020,5,18,0,967,11,0,138,6
2020,5,19,0,967,11,0,139,6
2020,5,20,0,967,11,0,140,6
2020,5,21,0,654,6,0,141,7
2020,5,22,0,654,6,0,142,7
2020,5,23,0,654,6,0,143,7
2020,5,24,0,654,6,0,144,7
2020,5,25,0,654,6,0,145,7
2020,5,26,0,654,6,0,146,7
2020,5,27,0,654,6,0,147,7
2020,5,28,0,552,1,0,148,7
2020,5,29,0,552,1,0,149,7
2020,5,30,0,552,1,0,150,7
2020,5,31,0,552,1,0,151,7
2020,6,1,0,552,1,0,152,7
2020,6,2,0,552,1,0,153,7
2020,6,3,0,552,1,0,154,7
2020,6,4,0,571,3,0,155,7
2020,6,5,0,571,3,0,156,7
2020,6,6,0,571,3,0,157,7
2020,6,7,0,571,3,0,158,7
2020,6,8,0,571,3,0,159,7
2020,6,9,0,571,3,0,160,7
2020,6,10,0,571,3,0,161,7
2020,6,11,0,551,1,0,162,7
2020,6,12,0,551,1,0,163,7
2020,6,13,0,551,1,0,164,7
2020,6,14,0,551,1,0,165,7
2020,6,15,0,551,1,0,166,7
2020,6,16,0,551,1,0,167,7
2020,6,17,0,551,1,0,168,7
2020,6,18,1,545,1,0,169,7
2020,6,19,1,545,1,0,170,7
2020,6,20,1,545,1,0,171,7
2020,6,21,1,545,1,0,172,7
2020,6,22,1,545,1,0,173,7
2020,6,23,1,545,1,0,174,7
2020,6,24,1,545,1,0,175,7
2020,6,25,0,568,1,0,176,7
2020,6,26,0,568,1,0,177,7
2020,6,27,0,568,1,0,178,7
2020,6,28,0,568,1,0,179,7
2020,6,29,0,568,1,0,180,7
2020,6,30,0,568,1,0,181,7
2020,7,1,0,568,1,0,182,7
2020,7,2,0,581,1,0,183,7
2020,7,3,0,581,1,0,184,7
2020,7,4,0,581,1,0,185,7
2020,7,5,0,581,1,0,186,7
2020,7,6,0,581,1,0,187,7
2020,7,7,0,581,1,0,188,7
2020,7,8,0,581,1,0,189,7
2020,7,9,2,642,0,0,190,7
2020,7,10,2,642,0,0,191,7
2020,7,11,2,642,0,0,192,7
2020,7,12,2,642,0,0,193,7
2020,7,13,2,642,0,0,194,7
2020,7,14,2,642,0,0,195,7
2020,7,15,2,642,0,0,196,7
2020,7,16,1,633,0,0,197,7
2020,7,17,1,633,0,0,198,7
2020,7,18,1,633,0,0,199,7
2020,7,19,1,633,0,0,200,7
2020,7,20,1,633,0,0,201,7
2020,7,21,1,633,0,0,202,7
2020,7,22,1,633,0,0,203,7
2020,7,23,2,747,1,0,204,7
2020,7,24,2,747,1,0,205,7
2020,7,25,2,747,1,0,206,7
2020,7,26,2,747,1,0,207,7
2020,7,27,2,747,1,0,208,7
2020,7,28,2,747,1,0,209,7
2020,7,29,2,747,1,0,210,7
2020,7,30,4,935,3,0,211,7
2020,7,31,4,935,3,0,212,7
2020,8,1,4,935,3,0,213,7
2020,8,2,4,935,3,0,214,7
2020,8,3,4,935,3,0,215,7
2020,8,4,4,935,3,0,216,7
2020,8,5,4,935,3,0,217,7
2020,8,6,9,825,2,0,218,6
2020,8,7,9,825,2,0,219,6
2020,8,8,9,825,2,0,220,6
2020,8,9,9,825,2,0,221,6
2020,8,10,9,825,2,0,222,6
2020,8,11,9,825,2,0,223,6
2020,8,12,9,825,2,0,224,6
2020,8,13,13,1090,2,0,225,6
2020,8,14,13,1090,2,0,226,6
2020,8,15,13,1090,2,0,227,6
2020,8,16,13,1090,2,0,228,6
2020,8,17,13,1090,2,0,229,6
2020,8,18,13,1090,2,0,230,6
2020,8,19,13,1090,2,0,231,6
2020,8,20,26,1187,8,0,232,7
2020,8,21,26,1187,8,0,233,7
2020,8,22,26,1187,8,0,234,7
2020,8,23,26,1187,8,0,235,7
2020,8,24,26,1187,8,0,236,7
2020,8,25,26,1187,8,0,237,7
2020,8,26,26,1187,8,0,238,7
2020,8,27,29,1591,13,0,239,7
2020,8,28,29,1591,13,0,240,7
2020,8,29,29,1591,13,0,241,7
2020,8,30,29,1591,13,0,242,7
2020,8,31,29,1591,13,0,243,7
2020,9,1,29,1591,13,0,244,7
2020,9,2,29,1591,13,0,245,7
2020,9,3,18,1142,23,0,246,6
2020,9,4,18,1142,23,0,247,6
2020,9,5,18,1142,23,0,248,6
2020,9,6,18,1142,23,0,249,6
2020,9,7,18,1142,23,0,250,6
2020,9,8,18,1142,23,0,251,6
2020,9,9,18,1142,23,0,252,6
2020,9,10,31,1426,38,0,253,7
2020,9,11,31,1426,38,0,254,7
2020,9,12,31,1426,38,0,255,7
2020,9,13,31,1426,38,0,256,7
2020,9,14,31,1426,38,0,257,7
2020,9,15,31,1426,38,0,258,7
2020,9,16,31,1426,38,0,259,7
2020,9,17,11,861,16,2,260,6
2020,9,18,11,861,16,2,261,6
2020,9,19,11,861,16,2,262,6
2020,9,20,11,861,16,2,263,6
2020,9,21,11,861,16,2,264,6
2020,9,22,11,861,16,2,265,6
2020,9,23,11,861,16,2,266,6
2020,9,24,25,1651,25,1,267,7
2020,9,25,25,1651,25,1,268,7
2020,9,26,25,1651,25,1,269,7
2020,9,27,25,1651,25,1,270,7
2020,9,28,25,1651,25,1,271,7
2020,9,29,25,1651,25,1,272,7
2020,9,30,25,1651,25,1,273,7
