year,month,day,pcr_positive,pcr_tests,discharged,deaths,coded_time, num_days
2020,2,8,0,0,0,0,38,0
2020,2,9,0,0,0,0,39,0
2020,2,10,0,0,0,0,40,0
2020,2,11,0,0,0,0,41,0
2020,2,12,0,0,0,0,42,0
2020,2,13,0,0,0,0,43,0
2020,2,14,0,0,0,0,44,0
2020,2,15,0,0,0,0,45,0
2020,2,16,0,0,0,0,46,0
2020,2,17,0,0,0,0,47,0
2020,2,18,0,0,0,0,48,0
2020,2,19,0,0,0,0,49,0
2020,2,20,0,0,0,0,50,0
2020,2,21,0,0,0,0,51,0
2020,2,22,0,0,0,0,52,0
2020,2,23,0,0,0,0,53,0
2020,2,24,0,0,0,0,54,0
2020,2,25,0,0,0,0,55,0
2020,2,26,0,0,0,0,56,0
2020,2,27,0,0,0,0,57,0
2020,2,28,0,0,0,0,58,0
2020,2,29,0,0,0,0,59,0
2020,3,1,0,0,0,0,60,0
2020,3,2,0,0,0,0,61,0
2020,3,3,0,0,0,0,62,0
2020,3,4,0,0,0,0,63,0
2020,3,5,0,190,0,0,64,1
2020,3,6,0,190,0,0,65,1
2020,3,7,0,190,0,0,66,1
2020,3,8,0,190,0,0,67,1
2020,3,9,0,190,0,0,68,1
2020,3,10,0,190,0,0,69,1
2020,3,11,0,190,0,0,70,1
2020,3,12,0,40,2,0,71,5
2020,3,13,0,40,2,0,72,5
2020,3,14,0,40,2,0,73,5
2020,3,15,0,40,2,0,74,5
2020,3,16,0,40,2,0,75,5
2020,3,17,0,40,2,0,76,5
2020,3,18,0,40,2,0,77,5
2020,3,19,2,41,0,0,78,3
2020,3,20,2,41,0,0,79,3
2020,3,21,2,41,0,0,80,3
2020,3,22,2,41,0,0,81,3
2020,3,23,2,41,0,0,82,3
2020,3,24,2,41,0,0,83,3
2020,3,25,2,41,0,0,84,3
2020,3,26,2,85,0,0,85,4
2020,3,27,2,85,0,0,86,4
2020,3,28,2,85,0,0,87,4
2020,3,29,2,85,0,0,88,4
2020,3,30,2,85,0,0,89,4
2020,3,31,2,85,0,0,90,4
2020,4,1,2,85,0,0,91,4
2020,4,2,24,232,1,0,92,5
2020,4,3,24,232,1,0,93,5
2020,4,4,24,232,1,0,94,5
2020,4,5,24,232,1,0,95,5
2020,4,6,24,232,1,0,96,5
2020,4,7,24,232,1,0,97,5
2020,4,8,24,232,1,0,98,5
2020,4,9,31,343,0,0,99,5
2020,4,10,31,343,0,0,100,5
2020,4,11,31,343,0,0,101,5
2020,4,12,31,343,0,0,102,5
2020,4,13,31,343,0,0,103,5
2020,4,14,31,343,0,0,104,5
2020,4,15,31,343,0,0,105,5
2020,4,16,28,647,8,3,106,5
2020,4,17,28,647,8,3,107,5
2020,4,18,28,647,8,3,108,5
2020,4,19,28,647,8,3,109,5
2020,4,20,28,647,8,3,110,5
2020,4,21,28,647,8,3,111,5
2020,4,22,28,647,8,3,112,5
2020,4,23,7,335,13,1,113,4
2020,4,24,7,335,13,1,114,4
2020,4,25,7,335,13,1,115,4
2020,4,26,7,335,13,1,116,4
2020,4,27,7,335,13,1,117,4
2020,4,28,7,335,13,1,118,4
2020,4,29,7,335,13,1,119,4
2020,4,30,1,394,0,0,120,4
2020,5,1,1,394,0,0,121,4
2020,5,2,1,394,0,0,122,4
2020,5,3,1,394,0,0,123,4
2020,5,4,1,394,0,0,124,4
2020,5,5,1,394,0,0,125,4
2020,5,6,1,394,0,0,126,4
2020,5,7,0,296,87,2,127,6
2020,5,8,0,296,87,2,128,6
2020,5,9,0,296,87,2,129,6
2020,5,10,0,296,87,2,130,6
2020,5,11,0,296,87,2,131,6
2020,5,12,0,296,87,2,132,6
2020,5,13,0,296,87,2,133,6
2020,5,14,0,165,19,0,134,6
2020,5,15,0,165,19,0,135,6
2020,5,16,0,165,19,0,136,6
2020,5,17,0,165,19,0,137,6
2020,5,18,0,165,19,0,138,6
2020,5,19,0,165,19,0,139,6
2020,5,20,0,165,19,0,140,6
2020,5,21,0,63,5,0,141,6
2020,5,22,0,63,5,0,142,6
2020,5,23,0,63,5,0,143,6
2020,5,24,0,63,5,0,144,6
2020,5,25,0,63,5,0,145,6
2020,5,26,0,63,5,0,146,6
2020,5,27,0,63,5,0,147,6
2020,5,28,0,44,2,1,148,7
2020,5,29,0,44,2,1,149,7
2020,5,30,0,44,2,1,150,7
2020,5,31,0,44,2,1,151,7
2020,6,1,0,44,2,1,152,7
2020,6,2,0,44,2,1,153,7
2020,6,3,0,44,2,1,154,7
2020,6,4,0,50,2,0,155,4
2020,6,5,0,50,2,0,156,4
2020,6,6,0,50,2,0,157,4
2020,6,7,0,50,2,0,158,4
2020,6,8,0,50,2,0,159,4
2020,6,9,0,50,2,0,160,4
2020,6,10,0,50,2,0,161,4
2020,6,11,0,46,0,0,162,7
2020,6,12,0,46,0,0,163,7
2020,6,13,0,46,0,0,164,7
2020,6,14,0,46,0,0,165,7
2020,6,15,0,46,0,0,166,7
2020,6,16,0,46,0,0,167,7
2020,6,17,0,46,0,0,168,7
2020,6,18,0,27,0,0,169,4
2020,6,19,0,27,0,0,170,4
2020,6,20,0,27,0,0,171,4
2020,6,21,0,27,0,0,172,4
2020,6,22,0,27,0,0,173,4
2020,6,23,0,27,0,0,174,4
2020,6,24,0,27,0,0,175,4
2020,6,25,0,20,0,0,176,6
2020,6,26,0,20,0,0,177,6
2020,6,27,0,20,0,0,178,6
2020,6,28,0,20,0,0,179,6
2020,6,29,0,20,0,0,180,6
2020,6,30,0,20,0,0,181,6
2020,7,1,0,20,0,0,182,6
2020,7,2,2,39,0,0,183,4
2020,7,3,2,39,0,0,184,4
2020,7,4,2,39,0,0,185,4
2020,7,5,2,39,0,0,186,4
2020,7,6,2,39,0,0,187,4
2020,7,7,2,39,0,0,188,4
2020,7,8,2,39,0,0,189,4
2020,7,9,1,319,2,0,190,4
2020,7,10,1,319,2,0,191,4
2020,7,11,1,319,2,0,192,4
2020,7,12,1,319,2,0,193,4
2020,7,13,1,319,2,0,194,4
2020,7,14,1,319,2,0,195,4
2020,7,15,1,319,2,0,196,4
2020,7,16,7,449,2,0,197,5
2020,7,17,7,449,2,0,198,5
2020,7,18,7,449,2,0,199,5
2020,7,19,7,449,2,0,200,5
2020,7,20,7,449,2,0,201,5
2020,7,21,7,449,2,0,202,5
2020,7,22,7,449,2,0,203,5
2020,7,23,97,3204,2,0,204,5
2020,7,24,97,3204,2,0,205,5
2020,7,25,97,3204,2,0,206,5
2020,7,26,97,3204,2,0,207,5
2020,7,27,97,3204,2,0,208,5
2020,7,28,97,3204,2,0,209,5
2020,7,29,97,3204,2,0,210,5
2020,7,30,369,3514,20,0,211,6
2020,7,31,369,3514,20,0,212,6
2020,8,1,369,3514,20,0,213,6
2020,8,2,369,3514,20,0,214,6
2020,8,3,369,3514,20,0,215,6
2020,8,4,369,3514,20,0,216,6
2020,8,5,369,3514,20,0,217,6
2020,8,6,271,5983,160,3,218,4
2020,8,7,271,5983,160,3,219,4
2020,8,8,271,5983,160,3,220,4
2020,8,9,271,5983,160,3,221,4
2020,8,10,271,5983,160,3,222,4
2020,8,11,271,5983,160,3,223,4
2020,8,12,271,5983,160,3,224,4
2020,8,13,146,2373,609,5,225,3
2020,8,14,146,2373,609,5,226,3
2020,8,15,146,2373,609,5,227,3
2020,8,16,146,2373,609,5,228,3
2020,8,17,146,2373,609,5,229,3
2020,8,18,146,2373,609,5,230,3
2020,8,19,146,2373,609,5,231,3
2020,8,20,173,5398,556,10,232,6
2020,8,21,173,5398,556,10,233,6
2020,8,22,173,5398,556,10,234,6
2020,8,23,173,5398,556,10,235,6
2020,8,24,173,5398,556,10,236,6
2020,8,25,173,5398,556,10,237,6
2020,8,26,173,5398,556,10,238,6
2020,8,27,74,3259,239,4,239,3
2020,8,28,74,3259,239,4,240,3
2020,8,29,74,3259,239,4,241,3
2020,8,30,74,3259,239,4,242,3
2020,8,31,74,3259,239,4,243,3
2020,9,1,74,3259,239,4,244,3
2020,9,2,74,3259,239,4,245,3
2020,9,3,15,8259,238,12,246,2
2020,9,4,15,8259,238,12,247,2
2020,9,5,15,8259,238,12,248,2
2020,9,6,15,8259,238,12,249,2
2020,9,7,15,8259,238,12,250,2
2020,9,8,15,8259,238,12,251,2
2020,9,9,15,8259,238,12,252,2
2020,9,10,41,8047,127,4,253,5
2020,9,11,41,8047,127,4,254,5
2020,9,12,41,8047,127,4,255,5
2020,9,13,41,8047,127,4,256,5
2020,9,14,41,8047,127,4,257,5
2020,9,15,41,8047,127,4,258,5
2020,9,16,41,8047,127,4,259,5
2020,9,17,49,2625,84,0,260,5
2020,9,18,49,2625,84,0,261,5
2020,9,19,49,2625,84,0,262,5
2020,9,20,49,2625,84,0,263,5
2020,9,21,49,2625,84,0,264,5
2020,9,22,49,2625,84,0,265,5
2020,9,23,49,2625,84,0,266,5
2020,9,24,110,2206,73,1,267,7
2020,9,25,110,2206,73,1,268,7
2020,9,26,110,2206,73,1,269,7
2020,9,27,110,2206,73,1,270,7
2020,9,28,110,2206,73,1,271,7
2020,9,29,110,2206,73,1,272,7
2020,9,30,110,2206,73,1,273,7
