year,month,day,pcr_positive,pcr_tests,discharged,deaths,coded_time, num_days
2020,2,8,0,0,0,0,38,0
2020,2,9,0,0,0,0,39,0
2020,2,10,0,0,0,0,40,0
2020,2,11,0,0,0,0,41,0
2020,2,12,0,0,0,0,42,0
2020,2,13,0,0,0,0,43,0
2020,2,14,0,0,0,0,44,0
2020,2,15,0,0,0,0,45,0
2020,2,16,0,0,0,0,46,0
2020,2,17,0,0,0,0,47,0
2020,2,18,0,0,0,0,48,0
2020,2,19,0,0,0,0,49,0
2020,2,20,0,0,0,0,50,0
2020,2,21,0,0,0,0,51,0
2020,2,22,0,0,0,0,52,0
2020,2,23,0,0,0,0,53,0
2020,2,24,0,0,0,0,54,0
2020,2,25,0,0,0,0,55,0
2020,2,26,0,0,0,0,56,0
2020,2,27,0,0,0,0,57,0
2020,2,28,0,0,0,0,58,0
2020,2,29,0,0,0,0,59,0
2020,3,1,0,0,0,0,60,0
2020,3,2,0,0,0,0,61,0
2020,3,3,0,0,0,0,62,0
2020,3,4,0,0,0,0,63,0
2020,3,5,1,62,0,0,64,1
2020,3,6,1,62,0,0,65,1
2020,3,7,1,62,0,0,66,1
2020,3,8,1,62,0,0,67,1
2020,3,9,1,62,0,0,68,1
2020,3,10,1,62,0,0,69,1
2020,3,11,1,62,0,0,70,1
2020,3,12,0,17,0,0,71,4
2020,3,13,0,17,0,0,72,4
2020,3,14,0,17,0,0,73,4
2020,3,15,0,17,0,0,74,4
2020,3,16,0,17,0,0,75,4
2020,3,17,0,17,0,0,76,4
2020,3,18,0,17,0,0,77,4
2020,3,19,0,20,0,0,78,4
2020,3,20,0,20,0,0,79,4
2020,3,21,0,20,0,0,80,4
2020,3,22,0,20,0,0,81,4
2020,3,23,0,20,0,0,82,4
2020,3,24,0,20,0,0,83,4
2020,3,25,0,20,0,0,84,4
2020,3,26,2,45,1,0,85,4
2020,3,27,2,45,1,0,86,4
2020,3,28,2,45,1,0,87,4
2020,3,29,2,45,1,0,88,4
2020,3,30,2,45,1,0,89,4
2020,3,31,2,45,1,0,90,4
2020,4,1,2,45,1,0,91,4
2020,4,2,0,62,0,0,92,5
2020,4,3,0,62,0,0,93,5
2020,4,4,0,62,0,0,94,5
2020,4,5,0,62,0,0,95,5
2020,4,6,0,62,0,0,96,5
2020,4,7,0,62,0,0,97,5
2020,4,8,0,62,0,0,98,5
2020,4,9,0,53,2,0,99,5
2020,4,10,0,53,2,0,100,5
2020,4,11,0,53,2,0,101,5
2020,4,12,0,53,2,0,102,5
2020,4,13,0,53,2,0,103,5
2020,4,14,0,53,2,0,104,5
2020,4,15,0,53,2,0,105,5
2020,4,16,2,94,0,0,106,5
2020,4,17,2,94,0,0,107,5
2020,4,18,2,94,0,0,108,5
2020,4,19,2,94,0,0,109,5
2020,4,20,2,94,0,0,110,5
2020,4,21,2,94,0,0,111,5
2020,4,22,2,94,0,0,112,5
2020,4,23,0,87,0,0,113,4
2020,4,24,0,87,0,0,114,4
2020,4,25,0,87,0,0,115,4
2020,4,26,0,87,0,0,116,4
2020,4,27,0,87,0,0,117,4
2020,4,28,0,87,0,0,118,4
2020,4,29,0,87,0,0,119,4
2020,4,30,0,29,0,1,120,2
2020,5,1,0,29,0,1,121,2
2020,5,2,0,29,0,1,122,2
2020,5,3,0,29,0,1,123,2
2020,5,4,0,29,0,1,124,2
2020,5,5,0,29,0,1,125,2
2020,5,6,0,29,0,1,126,2
2020,5,7,0,166,1,0,127,6
2020,5,8,0,166,1,0,128,6
2020,5,9,0,166,1,0,129,6
2020,5,10,0,166,1,0,130,6
2020,5,11,0,166,1,0,131,6
2020,5,12,0,166,1,0,132,6
2020,5,13,0,166,1,0,133,6
2020,5,14,0,49,0,0,134,5
2020,5,15,0,49,0,0,135,5
2020,5,16,0,49,0,0,136,5
2020,5,17,0,49,0,0,137,5
2020,5,18,0,49,0,0,138,5
2020,5,19,0,49,0,0,139,5
2020,5,20,0,49,0,0,140,5
2020,5,21,0,35,0,0,141,6
2020,5,22,0,35,0,0,142,6
2020,5,23,0,35,0,0,143,6
2020,5,24,0,35,0,0,144,6
2020,5,25,0,35,0,0,145,6
2020,5,26,0,35,0,0,146,6
2020,5,27,0,35,0,0,147,6
2020,5,28,0,33,0,0,148,7
2020,5,29,0,33,0,0,149,7
2020,5,30,0,33,0,0,150,7
2020,5,31,0,33,0,0,151,7
2020,6,1,0,33,0,0,152,7
2020,6,2,0,33,0,0,153,7
2020,6,3,0,33,0,0,154,7
2020,6,4,0,37,0,0,155,7
2020,6,5,0,37,0,0,156,7
2020,6,6,0,37,0,0,157,7
2020,6,7,0,37,0,0,158,7
2020,6,8,0,37,0,0,159,7
2020,6,9,0,37,0,0,160,7
2020,6,10,0,37,0,0,161,7
2020,6,11,0,40,0,0,162,7
2020,6,12,0,40,0,0,163,7
2020,6,13,0,40,0,0,164,7
2020,6,14,0,40,0,0,165,7
2020,6,15,0,40,0,0,166,7
2020,6,16,0,40,0,0,167,7
2020,6,17,0,40,0,0,168,7
2020,6,18,0,22,0,0,169,6
2020,6,19,0,22,0,0,170,6
2020,6,20,0,22,0,0,171,6
2020,6,21,0,22,0,0,172,6
2020,6,22,0,22,0,0,173,6
2020,6,23,0,22,0,0,174,6
2020,6,24,0,22,0,0,175,6
2020,6,25,1,74,0,0,176,7
2020,6,26,1,74,0,0,177,7
2020,6,27,1,74,0,0,178,7
2020,6,28,1,74,0,0,179,7
2020,6,29,1,74,0,0,180,7
2020,6,30,1,74,0,0,181,7
2020,7,1,1,74,0,0,182,7
2020,7,2,3,93,0,0,183,7
2020,7,3,3,93,0,0,184,7
2020,7,4,3,93,0,0,185,7
2020,7,5,3,93,0,0,186,7
2020,7,6,3,93,0,0,187,7
2020,7,7,3,93,0,0,188,7
2020,7,8,3,93,0,0,189,7
2020,7,9,1,250,0,0,190,7
2020,7,10,1,250,0,0,191,7
2020,7,11,1,250,0,0,192,7
2020,7,12,1,250,0,0,193,7
2020,7,13,1,250,0,0,194,7
2020,7,14,1,250,0,0,195,7
2020,7,15,1,250,0,0,196,7
2020,7,16,0,202,0,0,197,7
2020,7,17,0,202,0,0,198,7
2020,7,18,0,202,0,0,199,7
2020,7,19,0,202,0,0,200,7
2020,7,20,0,202,0,0,201,7
2020,7,21,0,202,0,0,202,7
2020,7,22,0,202,0,0,203,7
2020,7,23,8,151,4,0,204,7
2020,7,24,8,151,4,0,205,7
2020,7,25,8,151,4,0,206,7
2020,7,26,8,151,4,0,207,7
2020,7,27,8,151,4,0,208,7
2020,7,28,8,151,4,0,209,7
2020,7,29,8,151,4,0,210,7
2020,7,30,25,679,2,0,211,7
2020,7,31,25,679,2,0,212,7
2020,8,1,25,679,2,0,213,7
2020,8,2,25,679,2,0,214,7
2020,8,3,25,679,2,0,215,7
2020,8,4,25,679,2,0,216,7
2020,8,5,25,679,2,0,217,7
2020,8,6,18,901,7,0,218,6
2020,8,7,18,901,7,0,219,6
2020,8,8,18,901,7,0,220,6
2020,8,9,18,901,7,0,221,6
2020,8,10,18,901,7,0,222,6
2020,8,11,18,901,7,0,223,6
2020,8,12,18,901,7,0,224,6
2020,8,13,34,1209,24,0,225,6
2020,8,14,34,1209,24,0,226,6
2020,8,15,34,1209,24,0,227,6
2020,8,16,34,1209,24,0,228,6
2020,8,17,34,1209,24,0,229,6
2020,8,18,34,1209,24,0,230,6
2020,8,19,34,1209,24,0,231,6
2020,8,20,23,845,3,1,232,7
2020,8,21,23,845,3,1,233,7
2020,8,22,23,845,3,1,234,7
2020,8,23,23,845,3,1,235,7
2020,8,24,23,845,3,1,236,7
2020,8,25,23,845,3,1,237,7
2020,8,26,23,845,3,1,238,7
2020,8,27,18,916,23,2,239,7
2020,8,28,18,916,23,2,240,7
2020,8,29,18,916,23,2,241,7
2020,8,30,18,916,23,2,242,7
2020,8,31,18,916,23,2,243,7
2020,9,1,18,916,23,2,244,7
2020,9,2,18,916,23,2,245,7
2020,9,3,9,437,16,2,246,6
2020,9,4,9,437,16,2,247,6
2020,9,5,9,437,16,2,248,6
2020,9,6,9,437,16,2,249,6
2020,9,7,9,437,16,2,250,6
2020,9,8,9,437,16,2,251,6
2020,9,9,9,437,16,2,252,6
2020,9,10,1,230,19,3,253,7
2020,9,11,1,230,19,3,254,7
2020,9,12,1,230,19,3,255,7
2020,9,13,1,230,19,3,256,7
2020,9,14,1,230,19,3,257,7
2020,9,15,1,230,19,3,258,7
2020,9,16,1,230,19,3,259,7
2020,9,17,0,104,11,0,260,7
2020,9,18,0,104,11,0,261,7
2020,9,19,0,104,11,0,262,7
2020,9,20,0,104,11,0,263,7
2020,9,21,0,104,11,0,264,7
2020,9,22,0,104,11,0,265,7
2020,9,23,0,104,11,0,266,7
2020,9,24,1,114,13,0,267,7
2020,9,25,1,114,13,0,268,7
2020,9,26,1,114,13,0,269,7
2020,9,27,1,114,13,0,270,7
2020,9,28,1,114,13,0,271,7
2020,9,29,1,114,13,0,272,7
2020,9,30,1,114,13,0,273,7
