year,month,day,pcr_positive,pcr_tests,discharged,deaths,coded_time, num_days
2020,2,8,0,0,0,0,38,0
2020,2,9,0,0,0,0,39,0
2020,2,10,0,0,0,0,40,0
2020,2,11,0,0,0,0,41,0
2020,2,12,0,0,0,0,42,0
2020,2,13,0,0,0,0,43,0
2020,2,14,0,0,0,0,44,0
2020,2,15,0,0,0,0,45,0
2020,2,16,0,0,0,0,46,0
2020,2,17,0,0,0,0,47,0
2020,2,18,0,0,0,0,48,0
2020,2,19,0,0,0,0,49,0
2020,2,20,0,0,0,0,50,0
2020,2,21,0,0,0,0,51,0
2020,2,22,0,0,0,0,52,0
2020,2,23,0,0,0,0,53,0
2020,2,24,0,0,0,0,54,0
2020,2,25,0,0,0,0,55,0
2020,2,26,0,0,0,0,56,0
2020,2,27,0,0,0,0,57,0
2020,2,28,0,0,0,0,58,0
2020,2,29,0,0,0,0,59,0
2020,3,1,0,0,0,0,60,0
2020,3,2,0,0,0,0,61,0
2020,3,3,0,0,0,0,62,0
2020,3,4,0,0,0,0,63,0
2020,3,5,3,113,0,0,64,1
2020,3,6,3,113,0,0,65,1
2020,3,7,3,113,0,0,66,1
2020,3,8,3,113,0,0,67,1
2020,3,9,3,113,0,0,68,1
2020,3,10,3,113,0,0,69,1
2020,3,11,3,113,0,0,70,1
2020,3,12,0,44,0,0,71,5
2020,3,13,0,44,0,0,72,5
2020,3,14,0,44,0,0,73,5
2020,3,15,0,44,0,0,74,5
2020,3,16,0,44,0,0,75,5
2020,3,17,0,44,0,0,76,5
2020,3,18,0,44,0,0,77,5
2020,3,19,2,39,0,0,78,6
2020,3,20,2,39,0,0,79,6
2020,3,21,2,39,0,0,80,6
2020,3,22,2,39,0,0,81,6
2020,3,23,2,39,0,0,82,6
2020,3,24,2,39,0,0,83,6
2020,3,25,2,39,0,0,84,6
2020,3,26,1,91,3,0,85,4
2020,3,27,1,91,3,0,86,4
2020,3,28,1,91,3,0,87,4
2020,3,29,1,91,3,0,88,4
2020,3,30,1,91,3,0,89,4
2020,3,31,1,91,3,0,90,4
2020,4,1,1,91,3,0,91,4
2020,4,2,11,226,0,0,92,7
2020,4,3,11,226,0,0,93,7
2020,4,4,11,226,0,0,94,7
2020,4,5,11,226,0,0,95,7
2020,4,6,11,226,0,0,96,7
2020,4,7,11,226,0,0,97,7
2020,4,8,11,226,0,0,98,7
2020,4,9,5,260,2,0,99,5
2020,4,10,5,260,2,0,100,5
2020,4,11,5,260,2,0,101,5
2020,4,12,5,260,2,0,102,5
2020,4,13,5,260,2,0,103,5
2020,4,14,5,260,2,0,104,5
2020,4,15,5,260,2,0,105,5
2020,4,16,3,371,10,0,106,7
2020,4,17,3,371,10,0,107,7
2020,4,18,3,371,10,0,108,7
2020,4,19,3,371,10,0,109,7
2020,4,20,3,371,10,0,110,7
2020,4,21,3,371,10,0,111,7
2020,4,22,3,371,10,0,112,7
2020,4,23,1,121,9,0,113,5
2020,4,24,1,121,9,0,114,5
2020,4,25,1,121,9,0,115,5
2020,4,26,1,121,9,0,116,5
2020,4,27,1,121,9,0,117,5
2020,4,28,1,121,9,0,118,5
2020,4,29,1,121,9,0,119,5
2020,4,30,2,25,0,0,120,2
2020,5,1,2,25,0,0,121,2
2020,5,2,2,25,0,0,122,2
2020,5,3,2,25,0,0,123,2
2020,5,4,2,25,0,0,124,2
2020,5,5,2,25,0,0,125,2
2020,5,6,2,25,0,0,126,2
2020,5,7,0,267,9,0,127,5
2020,5,8,0,267,9,0,128,5
2020,5,9,0,267,9,0,129,5
2020,5,10,0,267,9,0,130,5
2020,5,11,0,267,9,0,131,5
2020,5,12,0,267,9,0,132,5
2020,5,13,0,267,9,0,133,5
2020,5,14,0,83,1,0,134,5
2020,5,15,0,83,1,0,135,5
2020,5,16,0,83,1,0,136,5
2020,5,17,0,83,1,0,137,5
2020,5,18,0,83,1,0,138,5
2020,5,19,0,83,1,0,139,5
2020,5,20,0,83,1,0,140,5
2020,5,21,0,29,1,0,141,6
2020,5,22,0,29,1,0,142,6
2020,5,23,0,29,1,0,143,6
2020,5,24,0,29,1,0,144,6
2020,5,25,0,29,1,0,145,6
2020,5,26,0,29,1,0,146,6
2020,5,27,0,29,1,0,147,6
2020,5,28,0,113,1,0,148,7
2020,5,29,0,113,1,0,149,7
2020,5,30,0,113,1,0,150,7
2020,5,31,0,113,1,0,151,7
2020,6,1,0,113,1,0,152,7
2020,6,2,0,113,1,0,153,7
2020,6,3,0,113,1,0,154,7
2020,6,4,0,104,0,0,155,7
2020,6,5,0,104,0,0,156,7
2020,6,6,0,104,0,0,157,7
2020,6,7,0,104,0,0,158,7
2020,6,8,0,104,0,0,159,7
2020,6,9,0,104,0,0,160,7
2020,6,10,0,104,0,0,161,7
2020,6,11,0,106,0,0,162,7
2020,6,12,0,106,0,0,163,7
2020,6,13,0,106,0,0,164,7
2020,6,14,0,106,0,0,165,7
2020,6,15,0,106,0,0,166,7
2020,6,16,0,106,0,0,167,7
2020,6,17,0,106,0,0,168,7
2020,6,18,0,168,1,0,169,7
2020,6,19,0,168,1,0,170,7
2020,6,20,0,168,1,0,171,7
2020,6,21,0,168,1,0,172,7
2020,6,22,0,168,1,0,173,7
2020,6,23,0,168,1,0,174,7
2020,6,24,0,168,1,0,175,7
2020,6,25,0,182,0,0,176,7
2020,6,26,0,182,0,0,177,7
2020,6,27,0,182,0,0,178,7
2020,6,28,0,182,0,0,179,7
2020,6,29,0,182,0,0,180,7
2020,6,30,0,182,0,0,181,7
2020,7,1,0,182,0,0,182,7
2020,7,2,0,200,0,0,183,7
2020,7,3,0,200,0,0,184,7
2020,7,4,0,200,0,0,185,7
2020,7,5,0,200,0,0,186,7
2020,7,6,0,200,0,0,187,7
2020,7,7,0,200,0,0,188,7
2020,7,8,0,200,0,0,189,7
2020,7,9,0,246,0,0,190,7
2020,7,10,0,246,0,0,191,7
2020,7,11,0,246,0,0,192,7
2020,7,12,0,246,0,0,193,7
2020,7,13,0,246,0,0,194,7
2020,7,14,0,246,0,0,195,7
2020,7,15,0,246,0,0,196,7
2020,7,16,6,587,0,0,197,7
2020,7,17,6,587,0,0,198,7
2020,7,18,6,587,0,0,199,7
2020,7,19,6,587,0,0,200,7
2020,7,20,6,587,0,0,201,7
2020,7,21,6,587,0,0,202,7
2020,7,22,6,587,0,0,203,7
2020,7,23,10,404,2,0,204,7
2020,7,24,10,404,2,0,205,7
2020,7,25,10,404,2,0,206,7
2020,7,26,10,404,2,0,207,7
2020,7,27,10,404,2,0,208,7
2020,7,28,10,404,2,0,209,7
2020,7,29,10,404,2,0,210,7
2020,7,30,7,387,9,0,211,7
2020,7,31,7,387,9,0,212,7
2020,8,1,7,387,9,0,213,7
2020,8,2,7,387,9,0,214,7
2020,8,3,7,387,9,0,215,7
2020,8,4,7,387,9,0,216,7
2020,8,5,7,387,9,0,217,7
2020,8,6,18,607,5,0,218,7
2020,8,7,18,607,5,0,219,7
2020,8,8,18,607,5,0,220,7
2020,8,9,18,607,5,0,221,7
2020,8,10,18,607,5,0,222,7
2020,8,11,18,607,5,0,223,7
2020,8,12,18,607,5,0,224,7
2020,8,13,11,494,14,0,225,6
2020,8,14,11,494,14,0,226,6
2020,8,15,11,494,14,0,227,6
2020,8,16,11,494,14,0,228,6
2020,8,17,11,494,14,0,229,6
2020,8,18,11,494,14,0,230,6
2020,8,19,11,494,14,0,231,6
2020,8,20,46,695,10,0,232,7
2020,8,21,46,695,10,0,233,7
2020,8,22,46,695,10,0,234,7
2020,8,23,46,695,10,0,235,7
2020,8,24,46,695,10,0,236,7
2020,8,25,46,695,10,0,237,7
2020,8,26,46,695,10,0,238,7
2020,8,27,40,1014,16,0,239,7
2020,8,28,40,1014,16,0,240,7
2020,8,29,40,1014,16,0,241,7
2020,8,30,40,1014,16,0,242,7
2020,8,31,40,1014,16,0,243,7
2020,9,1,40,1014,16,0,244,7
2020,9,2,40,1014,16,0,245,7
2020,9,3,14,534,54,0,246,6
2020,9,4,14,534,54,0,247,6
2020,9,5,14,534,54,0,248,6
2020,9,6,14,534,54,0,249,6
2020,9,7,14,534,54,0,250,6
2020,9,8,14,534,54,0,251,6
2020,9,9,14,534,54,0,252,6
2020,9,10,5,1024,21,1,253,7
2020,9,11,5,1024,21,1,254,7
2020,9,12,5,1024,21,1,255,7
2020,9,13,5,1024,21,1,256,7
2020,9,14,5,1024,21,1,257,7
2020,9,15,5,1024,21,1,258,7
2020,9,16,5,1024,21,1,259,7
2020,9,17,1,531,16,1,260,7
2020,9,18,1,531,16,1,261,7
2020,9,19,1,531,16,1,262,7
2020,9,20,1,531,16,1,263,7
2020,9,21,1,531,16,1,264,7
2020,9,22,1,531,16,1,265,7
2020,9,23,1,531,16,1,266,7
2020,9,24,7,721,7,0,267,7
2020,9,25,7,721,7,0,268,7
2020,9,26,7,721,7,0,269,7
2020,9,27,7,721,7,0,270,7
2020,9,28,7,721,7,0,271,7
2020,9,29,7,721,7,0,272,7
2020,9,30,7,721,7,0,273,7
