1960,3.2,3.6
1965,5.1,5.3
1970,7.4,7.4
1975,8.0,8.2
1980,7.1,7.5
1985,7.3,8.0
1990,7.5,8.0
1995,11.7,11.2
2000,10.6,9.1
2005,11.6,10.0
2010,12.4,10.5
2011,12.6,10.7
2012,12.5,10.6
2013,11.9,10.1
2014,11.9,9.9
2015,11.7,9.6
2016,11.9,9.7
2017,12.7,9.8
2018,13.0,10.0
