"Table 3. Provisional reported cumulative cases & cumulative cases per sentinel of sentinel reporting diseases by prefecture, Japan",,,,,,,,,,,,,,,,,,,,,,,,,,,,,,,,,,,,
"21st week, 2019",,,,,,"Data collected as of May 29, 2019",,,,,,,,,,,,,,,,,,,,,,,,,,,,,,
,,,,,,,,,,,,,,,,,,,,,,,,,,,,,,,,,,,,
Prefecture,Influenza(excld. avian influenza and pandemic influenza),,Respiratory syncytial virus infection,,Pharyngoconjunctival fever,,Group A streptococcal pharyngitis,,Infectious gastroenteritis,,Chickenpox,,"Hand, foot and mouth disease",,Erythema infection,,Exanthem subitum,,Herpangina,,Mumps,,Acute hemorrhagic conjunctivitis,,Epidemic keratoconjunctivitis,,Bacterial meningitis,,Aseptic meningitis,,Mycoplasma pneumonia,,Chlamydial pneumonia(excluding psittacosis),,Infectious gastroenteritis (only by Rotavirus),
,Current week,per sentinel,Current week,per sentinel,Current week,per sentinel,Current week,per sentinel,Current week,per sentinel,Current week,per sentinel,Current week,per sentinel,Current week,per sentinel,Current week,per sentinel,Current week,per sentinel,Current week,per sentinel,Current week,per sentinel,Current week,per sentinel,Current week,per sentinel,Current week,per sentinel,Current week,per sentinel,Current week,per sentinel,Current week,per sentinel
Total No.,1414787,286.68,27685,8.79,23413,7.43,152684,48.46,397123,126.03,22386,7.1,20356,6.46,43389,13.77,24492,7.77,3527,1.12,5947,1.89,149,0.21,8598,12.39,206,0.43,212,0.44,1595,3.33,45,0.09,3778,7.89
Hokkaido,58706,266.85,1735,12.57,1049,7.6,11557,83.75,8837,64.04,873,6.33,173,1.25,1466,10.62,632,4.58,35,0.25,138,1,3,0.11,236,8.43,7,0.32,4,0.18,139,6.32,3,0.14,197,8.95
Aomori,14831,228.17,187,4.45,183,4.36,1678,39.95,4609,109.74,243,5.79,274,6.52,771,18.36,331,7.88,16,0.38,203,4.83,3,0.27,60,5.45,2,0.33,2,0.33,76,12.67,-,-,56,9.33
Iwate,17670,271.85,198,4.95,246,6.15,3055,76.38,3872,96.8,307,7.68,199,4.98,602,15.05,316,7.9,9,0.23,190,4.75,-,-,190,13.57,6,0.32,1,0.05,59,3.11,1,0.05,210,11.05
Miyagi,30316,322.51,582,10.03,277,4.78,4106,70.79,7020,121.03,675,11.64,109,1.88,2279,39.29,534,9.21,11,0.19,79,1.36,4,0.33,52,4.33,1,0.08,1,0.08,80,6.67,-,-,25,2.08
Akita,14846,280.11,72,2.12,112,3.29,1127,33.15,2119,62.32,99,2.91,17,0.5,292,8.59,146,4.29,11,0.32,20,0.59,-,-,35,5.83,2,0.25,-,-,79,9.88,-,-,15,1.88
Yamagata,12687,288.34,176,6.07,231,7.97,2434,83.93,4612,159.03,242,8.34,139,4.79,959,33.07,319,11,13,0.45,26,0.9,-,-,63,9,3,0.3,4,0.4,38,3.8,-,-,55,5.5
Fukushima,28715,345.96,508,10.16,497,9.94,2964,59.28,4034,80.68,411,8.22,333,6.66,889,17.78,607,12.14,19,0.38,117,2.34,1,0.08,265,20.38,2,0.29,-,-,19,2.71,-,-,120,17.14
Ibaraki,36593,304.94,411,5.48,466,6.21,3546,47.28,7783,103.77,655,8.73,156,2.08,1172,15.63,406,5.41,52,0.69,90,1.2,-,-,374,23.38,4,0.33,1,0.08,79,6.58,-,-,34,2.83
Tochigi,21638,288.51,293,6.1,162,3.38,1899,39.56,3141,65.44,302,6.29,222,4.63,546,11.38,434,9.04,6,0.13,79,1.65,-,-,103,8.58,1,0.14,-,-,31,4.43,-,-,42,6
Gunma,25648,301.74,299,5.75,379,7.29,2254,43.35,5522,106.19,358,6.88,138,2.65,553,10.63,452,8.69,27,0.52,80,1.54,1,0.07,175,12.5,-,-,1,0.13,19,2.38,-,-,126,15.75
Saitama,93251,368.58,1021,6.38,1019,6.37,9103,56.89,25253,157.83,1543,9.64,433,2.71,3437,21.48,1357,8.48,45,0.28,359,2.24,19,0.48,404,10.1,3,0.27,13,1.18,17,1.55,1,0.09,98,8.91
Chiba,67442,319.63,633,4.8,650,4.92,7928,60.06,14828,112.33,1106,8.38,245,1.86,2463,18.66,939,7.11,81,0.61,214,1.62,9,0.26,301,8.85,9,1,11,1.22,32,3.56,-,-,60,6.67
Tokyo,109371,270.05,1351,5.32,1100,4.33,11724,46.16,37333,146.98,2238,8.81,603,2.37,4243,16.7,2238,8.81,106,0.42,330,1.3,2,0.05,233,6.3,18,0.75,16,0.67,43,1.79,19,0.79,160,6.67
Kanagawa,103068,291.15,904,4,832,3.68,9355,41.39,26534,117.41,2050,9.07,534,2.36,2771,12.26,1750,7.74,69,0.31,511,2.26,8,0.16,1051,21.02,6,0.55,2,0.18,23,2.09,-,-,101,9.18
Niigata,31703,352.26,785,13.77,809,14.19,4969,87.18,7116,124.84,525,9.21,136,2.39,2117,37.14,497,8.72,12,0.21,121,2.12,13,1.3,79,7.9,5,0.38,1,0.08,69,5.31,3,0.23,37,2.85
Toyama,10751,223.98,156,5.38,418,14.41,1415,48.79,4239,146.17,233,8.03,120,4.14,650,22.41,212,7.31,66,2.28,26,0.9,10,1.43,51,7.29,3,0.6,1,0.2,3,0.6,-,-,16,3.2
Ishikawa,15284,318.42,265,9.14,466,16.07,2662,91.79,3930,135.52,141,4.86,63,2.17,950,32.76,215,7.41,7,0.24,20,0.69,-,-,47,6.71,3,0.6,4,0.8,41,8.2,-,-,50,10
Fukui,10816,309.03,356,16.18,393,17.86,1451,65.95,3320,150.91,220,10,55,2.5,184,8.36,168,7.64,13,0.59,54,2.45,-,-,74,24.67,6,1,4,0.67,10,1.67,-,-,52,8.67
Yamanashi,11256,274.54,73,3.04,43,1.79,705,29.38,2321,96.71,151,6.29,63,2.63,402,16.75,114,4.75,9,0.38,63,2.63,4,0.44,71,7.89,4,0.4,8,0.8,49,4.9,-,-,52,5.2
Nagano,28381,330.01,346,6.53,259,4.89,1690,31.89,6848,129.21,279,5.26,128,2.42,742,14,311,5.87,54,1.02,60,1.13,1,0.1,51,5.1,5,0.45,6,0.55,49,4.45,-,-,124,11.27
Gifu,25242,293.51,272,5.23,315,6.06,1098,21.12,3440,66.15,186,3.58,61,1.17,300,5.77,295,5.67,16,0.31,25,0.48,3,0.27,62,5.64,-,-,-,-,12,2.4,1,0.2,95,19
Shizuoka,40611,292.17,460,5.17,408,4.58,3177,35.7,12092,135.87,353,3.97,168,1.89,1147,12.89,521,5.85,55,0.62,191,2.15,-,-,233,10.59,4,0.4,14,1.4,19,1.9,1,0.1,17,1.7
Aichi,72830,373.49,1296,7.12,977,5.37,6058,33.29,19226,105.64,811,4.46,219,1.2,1504,8.26,1066,5.86,73,0.4,233,1.28,4,0.11,238,6.8,6,0.4,12,0.8,63,4.2,1,0.07,356,23.73
Mie,17359,241.1,663,14.73,331,7.36,1773,39.4,5696,126.58,223,4.96,159,3.53,243,5.4,339,7.53,29,0.64,36,0.8,-,-,11,0.92,7,0.78,18,2,34,3.78,2,0.22,76,8.44
Shiga,13864,266.62,156,5.03,187,6.03,962,31.03,3390,109.35,169,5.45,84,2.71,153,4.94,153,4.94,44,1.42,34,1.1,-,-,23,2.88,4,0.57,1,0.14,3,0.43,1,0.14,32,4.57
Kyoto,32148,257.18,329,4.33,437,5.75,2188,28.79,9230,121.45,380,5,311,4.09,949,12.49,423,5.57,58,0.76,78,1.03,-,-,66,3.88,3,0.43,-,-,26,3.71,-,-,116,16.57
Osaka,72458,240.72,3373,17.04,1899,9.59,9411,47.53,26561,134.15,1278,6.45,3017,15.24,2119,10.7,1460,7.37,388,1.96,325,1.64,10,0.19,293,5.63,12,0.75,4,0.25,36,2.25,-,-,347,21.69
Hyogo,48236,243.62,1548,12.09,1197,9.35,4123,32.21,20168,157.56,904,7.06,839,6.55,1549,12.1,783,6.12,102,0.8,103,0.8,10,0.29,409,12.03,22,1.57,9,0.64,36,2.57,1,0.07,215,15.36
Nara,11459,208.35,393,11.56,305,8.97,1340,39.41,4618,135.82,164,4.82,243,7.15,118,3.47,234,6.88,27,0.79,28,0.82,-,-,138,13.8,3,0.5,4,0.67,30,5,-,-,73,12.17
Wakayama,9000,183.67,713,23.77,176,5.87,578,19.27,3261,108.7,94,3.13,108,3.6,442,14.73,203,6.77,36,1.2,27,0.9,13,3.25,35,8.75,1,0.09,7,0.64,43,3.91,1,0.09,85,7.73
Tottori,7280,251.03,155,8.16,204,10.74,1772,93.26,2942,154.84,161,8.47,492,25.89,65,3.42,145,7.63,19,1,15,0.79,1,0.2,91,18.2,2,0.4,2,0.4,7,1.4,-,-,12,2.4
Shimane,7417,195.18,167,7.26,184,8,986,42.87,2991,130.04,129,5.61,347,15.09,67,2.91,226,9.83,17,0.74,27,1.17,-,-,5,1.67,1,0.13,3,0.38,11,1.38,2,0.25,19,2.38
Okayama,19588,233.19,271,5.02,370,6.85,1887,34.94,8103,150.06,261,4.83,394,7.3,218,4.04,285,5.28,88,1.63,80,1.48,1,0.08,116,9.67,2,0.4,1,0.2,7,1.4,-,-,42,8.4
Hiroshima,26413,233.74,659,9.41,745,10.64,3023,43.19,9806,140.09,344,4.91,300,4.29,392,5.6,460,6.57,54,0.77,287,4.1,3,0.17,222,12.33,5,0.25,6,0.3,30,1.5,-,-,81,4.05
Yamaguchi,17349,262.86,1136,24.7,274,5.96,2031,44.15,5313,115.5,164,3.57,200,4.35,412,8.96,406,8.83,54,1.17,75,1.63,1,0.11,113,12.56,3,0.33,-,-,41,4.56,-,-,49,5.44
Tokushima,8105,219.05,599,26.04,138,6,365,15.87,3369,146.48,79,3.43,153,6.65,83,3.61,160,6.96,10,0.43,14,0.61,2,0.5,54,13.5,-,-,-,-,6,0.86,-,-,2,0.29
Kagawa,11223,238.79,246,8.79,258,9.21,1095,39.11,4464,159.43,139,4.96,41,1.46,285,10.18,272,9.71,22,0.79,110,3.93,4,0.8,23,4.6,1,0.2,2,0.4,12,2.4,1,0.2,15,3
Ehime,14691,240.84,245,6.62,261,7.05,2446,66.11,6944,187.68,254,6.86,43,1.16,262,7.08,448,12.11,14,0.38,86,2.32,1,0.13,473,59.13,-,-,2,0.33,14,2.33,-,-,11,1.83
Kochi,13735,286.15,344,11.47,121,4.03,1490,49.67,3193,106.43,156,5.2,48,1.6,156,5.2,180,6,13,0.43,19,0.63,-,-,32,10.67,2,0.25,-,-,56,7,4,0.5,87,10.88
Fukuoka,65465,330.63,1796,14.97,1432,11.93,9207,76.73,19716,164.3,1203,10.03,1934,16.12,2715,22.63,1452,12.1,285,2.38,535,4.46,10,0.38,569,21.88,13,0.87,8,0.53,33,2.2,-,-,91,6.07
Saga,10059,257.92,229,9.96,271,11.78,802,34.87,2319,100.83,189,8.22,433,18.83,370,16.09,305,13.26,52,2.26,18,0.78,-,-,37,9.25,1,0.17,3,0.5,15,2.5,-,-,59,9.83
Nagasaki,21485,311.38,196,4.56,490,11.4,1455,33.84,3378,78.56,231,5.37,453,10.53,361,8.4,370,8.6,53,1.23,72,1.67,4,0.5,126,15.75,5,0.42,12,1,29,2.42,-,-,31,2.58
Kumamoto,21693,274.59,561,11.45,467,9.53,2175,44.39,7926,161.76,350,7.14,954,19.47,306,6.24,711,14.51,256,5.22,103,2.1,1,0.11,408,45.33,3,0.2,7,0.47,13,0.87,-,-,156,10.4
Oita,19225,331.47,319,8.86,462,12.83,1599,44.42,7046,195.72,283,7.86,560,15.56,185,5.14,384,10.67,83,2.31,355,9.86,-,-,106,21.2,2,0.18,6,0.55,30,2.73,-,-,18,1.64
Miyazaki,18182,313.48,254,7.26,475,13.57,2287,65.34,6362,181.77,340,9.71,1827,52.2,504,14.4,480,13.71,527,15.06,91,2.6,-,-,295,49.17,-,-,-,-,-,-,-,-,19,2.71
Kagoshima,25730,279.67,660,12.22,1184,21.93,2629,48.69,9961,184.46,575,10.65,2251,41.69,249,4.61,455,8.43,412,7.63,143,2.65,1,0.14,288,41.14,4,0.33,-,-,4,0.33,-,-,25,2.08
Okinawa,20967,367.84,294,8.91,254,7.7,1105,33.48,2337,70.82,315,9.55,577,17.48,747,22.64,298,9.03,79,2.39,57,1.73,2,0.25,217,27.13,10,1.43,11,1.57,30,4.29,3,0.43,19,2.71
