"Table 2. Provisional reported cases & cases per sentinel of sentinel reporting diseases by prefecture,  Japan",,,,,,,,,,,,,,,,,,,,,,,,,,,,,,,,,,,,
"43rd week, 2019",,,,,,"Data collected as of October 30, 2019",,,,,,,,,,,,,,,,,,,,,,,,,,,,,,
,,,,,,,,,,,,,,,,,,,,,,,,,,,,,,,,,,,,
Prefecture,Influenza(excld. avian influenza and pandemic influenza),,Respiratory syncytial virus infection,,Pharyngoconjunctival fever,,Group A streptococcal pharyngitis,,Infectious gastroenteritis,,Chickenpox,,"Hand, foot and mouth disease",,Erythema infection,,Exanthem subitum,,Herpangina,,Mumps,,Acute hemorrhagic conjunctivitis,,Epidemic keratoconjunctivitis,,Bacterial meningitis,,Aseptic meningitis,,Mycoplasma pneumonia,,Chlamydial pneumonia(excluding psittacosis),,Infectious gastroenteritis (only by Rotavirus),
,Current week,per sentinel,Current week,per sentinel,Current week,per sentinel,Current week,per sentinel,Current week,per sentinel,Current week,per sentinel,Current week,per sentinel,Current week,per sentinel,Current week,per sentinel,Current week,per sentinel,Current week,per sentinel,Current week,per sentinel,Current week,per sentinel,Current week,per sentinel,Current week,per sentinel,Current week,per sentinel,Current week,per sentinel,Current week,per sentinel
Total No.,3953,0.8,3181,1,1223,0.39,5238,1.65,9282,2.93,906,0.29,4239,1.34,1846,0.58,1073,0.34,953,0.3,237,0.07,3,0,394,0.57,8,0.02,20,0.04,179,0.37,4,0.01,3,0.01
Hokkaido,389,1.77,196,1.43,38,0.28,325,2.37,136,0.99,56,0.41,217,1.58,64,0.47,29,0.21,38,0.28,6,0.04,-,-,6,0.21,-,-,-,-,39,1.7,1,0.04,1,0.04
Aomori,21,0.32,36,0.86,7,0.17,21,0.5,72,1.71,6,0.14,63,1.5,19,0.45,14,0.33,11,0.26,6,0.14,-,-,14,1.27,-,-,-,-,7,1.17,-,-,-,-
Iwate,92,1.42,79,1.98,7,0.18,103,2.58,102,2.55,9,0.23,54,1.35,25,0.63,15,0.38,14,0.35,3,0.08,-,-,7,0.5,-,-,-,-,6,0.32,-,-,-,-
Miyagi,40,0.43,47,0.81,37,0.64,159,2.74,136,2.34,25,0.43,120,2.07,27,0.47,28,0.48,17,0.29,4,0.07,-,-,3,0.25,-,-,-,-,4,0.33,-,-,-,-
Akita,21,0.39,43,1.23,4,0.11,18,0.51,51,1.46,5,0.14,13,0.37,-,-,7,0.2,4,0.11,-,-,-,-,1,0.14,-,-,-,-,8,1,-,-,-,-
Yamagata,9,0.2,41,1.41,21,0.72,109,3.76,68,2.34,16,0.55,18,0.62,9,0.31,13,0.45,17,0.59,-,-,-,-,7,0.88,-,-,-,-,1,0.1,-,-,1,0.1
Fukushima,63,0.76,59,1.18,20,0.4,104,2.08,79,1.58,22,0.44,28,0.56,49,0.98,24,0.48,7,0.14,5,0.1,-,-,12,0.92,-,-,-,-,1,0.14,-,-,-,-
Ibaraki,82,0.68,28,0.37,17,0.23,116,1.55,154,2.05,23,0.31,98,1.31,19,0.25,16,0.21,15,0.2,5,0.07,-,-,16,0.94,-,-,-,-,5,0.42,-,-,-,-
Tochigi,27,0.36,49,1.02,5,0.1,38,0.79,59,1.23,9,0.19,65,1.35,13,0.27,17,0.35,4,0.08,1,0.02,-,-,1,0.08,-,-,-,-,-,-,-,-,-,-
Gunma,12,0.14,37,0.69,22,0.41,82,1.52,262,4.85,10,0.19,78,1.44,30,0.56,22,0.41,24,0.44,5,0.09,-,-,10,0.67,-,-,-,-,5,0.56,-,-,1,0.11
Saitama,118,0.46,103,0.63,73,0.45,322,1.98,568,3.48,55,0.34,312,1.91,68,0.42,62,0.38,18,0.11,26,0.16,-,-,23,0.56,-,-,1,0.09,7,0.64,-,-,-,-
Chiba,168,0.79,36,0.27,54,0.41,256,1.92,274,2.06,23,0.17,207,1.56,61,0.46,39,0.29,33,0.25,13,0.1,-,-,15,0.44,-,-,2,0.22,5,0.56,-,-,-,-
Tokyo,284,0.69,87,0.33,73,0.28,490,1.88,884,3.4,83,0.32,453,1.74,58,0.22,97,0.37,75,0.29,25,0.1,-,-,18,0.49,-,-,2,0.08,18,0.72,1,0.04,-,-
Kanagawa,335,0.94,95,0.41,59,0.26,348,1.51,606,2.63,79,0.34,476,2.07,43,0.19,85,0.37,42,0.18,10,0.04,-,-,44,0.88,-,-,1,0.09,-,-,-,-,-,-
Niigata,156,1.73,145,2.54,39,0.68,157,2.75,128,2.25,17,0.3,171,3,19,0.33,25,0.44,47,0.82,3,0.05,-,-,1,0.1,-,-,-,-,-,-,-,-,-,-
Toyama,30,0.63,36,1.24,6,0.21,41,1.41,113,3.9,5,0.17,87,3,22,0.76,11,0.38,38,1.31,-,-,-,-,1,0.14,-,-,-,-,-,-,-,-,-,-
Ishikawa,44,0.92,57,1.97,8,0.28,61,2.1,101,3.48,15,0.52,43,1.48,15,0.52,5,0.17,15,0.52,-,-,-,-,7,1,-,-,-,-,2,0.4,-,-,-,-
Fukui,6,0.16,17,0.74,16,0.7,39,1.7,105,4.57,7,0.3,34,1.48,28,1.22,6,0.26,16,0.7,3,0.13,-,-,2,0.67,1,0.17,-,-,-,-,-,-,-,-
Yamanashi,43,1.05,18,0.75,4,0.17,11,0.46,51,2.13,1,0.04,16,0.67,9,0.38,12,0.5,5,0.21,-,-,-,-,16,1.78,1,0.1,2,0.2,1,0.1,-,-,-,-
Nagano,18,0.21,28,0.52,3,0.06,71,1.31,141,2.61,19,0.35,90,1.67,27,0.5,13,0.24,15,0.28,2,0.04,-,-,4,0.36,-,-,-,-,1,0.09,-,-,-,-
Gifu,19,0.22,50,0.94,9,0.17,39,0.74,109,2.06,6,0.11,39,0.74,28,0.53,11,0.21,8,0.15,1,0.02,-,-,4,0.36,-,-,-,-,1,0.2,-,-,-,-
Shizuoka,80,0.58,101,1.12,30,0.33,133,1.48,270,3,13,0.14,99,1.1,24,0.27,27,0.3,23,0.26,3,0.03,-,-,21,0.95,1,0.1,1,0.1,-,-,-,-,-,-
Aichi,124,0.64,192,1.05,37,0.2,230,1.26,379,2.08,37,0.2,232,1.27,126,0.69,41,0.23,33,0.18,6,0.03,-,-,5,0.14,2,0.13,2,0.13,7,0.47,-,-,-,-
Mie,9,0.13,74,1.68,18,0.41,49,1.11,136,3.09,12,0.27,46,1.05,33,0.75,11,0.25,5,0.11,1,0.02,-,-,-,-,-,-,1,0.11,-,-,-,-,-,-
Shiga,19,0.37,29,0.94,5,0.16,26,0.84,86,2.77,10,0.32,17,0.55,27,0.87,2,0.06,31,1,3,0.1,-,-,2,0.25,-,-,1,0.14,3,0.43,-,-,-,-
Kyoto,44,0.35,77,1,25,0.32,90,1.17,153,1.99,26,0.34,67,0.87,42,0.55,24,0.31,17,0.22,5,0.06,-,-,-,-,-,-,1,0.14,5,0.71,-,-,-,-
Osaka,77,0.26,385,1.95,72,0.37,281,1.43,581,2.95,63,0.32,125,0.63,118,0.6,62,0.31,38,0.19,10,0.05,-,-,9,0.17,-,-,1,0.06,7,0.44,-,-,-,-
Hyogo,33,0.17,164,1.27,61,0.47,137,1.06,471,3.65,35,0.27,59,0.46,103,0.8,28,0.22,25,0.19,13,0.1,-,-,23,0.66,-,-,-,-,5,0.36,-,-,-,-
Nara,16,0.29,80,2.35,18,0.53,45,1.32,87,2.56,2,0.06,14,0.41,32,0.94,8,0.24,1,0.03,-,-,-,-,3,0.3,-,-,-,-,4,0.67,-,-,-,-
Wakayama,4,0.08,40,1.33,16,0.53,24,0.8,61,2.03,6,0.2,31,1.03,22,0.73,12,0.4,6,0.2,1,0.03,-,-,3,0.75,-,-,1,0.09,1,0.09,1,0.09,-,-
Tottori,3,0.1,34,1.79,17,0.89,80,4.21,57,3,5,0.26,8,0.42,8,0.42,4,0.21,11,0.58,2,0.11,-,-,9,1.8,-,-,-,-,3,0.6,-,-,-,-
Shimane,23,0.61,34,1.48,8,0.35,28,1.22,176,7.65,1,0.04,9,0.39,4,0.17,8,0.35,9,0.39,-,-,-,-,-,-,1,0.13,1,0.13,1,0.13,-,-,-,-
Okayama,22,0.26,39,0.72,13,0.24,59,1.09,210,3.89,10,0.19,24,0.44,12,0.22,10,0.19,8,0.15,4,0.07,-,-,5,0.42,1,0.2,-,-,-,-,-,-,-,-
Hiroshima,156,1.36,74,1.03,35,0.49,82,1.14,216,3,18,0.25,46,0.64,24,0.33,17,0.24,21,0.29,6,0.08,3,0.16,11,0.58,-,-,-,-,4,0.19,-,-,-,-
Yamaguchi,34,0.51,91,1.98,14,0.3,79,1.72,146,3.17,11,0.24,57,1.24,12,0.26,21,0.46,14,0.3,5,0.11,-,-,4,0.5,-,-,-,-,1,0.11,-,-,-,-
Tokushima,7,0.19,29,1.26,13,0.57,11,0.48,71,3.09,8,0.35,9,0.39,27,1.17,9,0.39,5,0.22,1,0.04,-,-,-,-,-,-,-,-,3,0.43,-,-,-,-
Kagawa,18,0.38,72,2.57,22,0.79,41,1.46,112,4,2,0.07,19,0.68,26,0.93,10,0.36,3,0.11,3,0.11,-,-,1,0.2,-,-,-,-,6,1.2,-,-,-,-
Ehime,33,0.54,62,1.68,8,0.22,69,1.86,184,4.97,3,0.08,42,1.14,38,1.03,17,0.46,8,0.22,18,0.49,-,-,10,1.25,-,-,-,-,2,0.33,-,-,-,-
Kochi,6,0.13,14,0.47,15,0.5,52,1.73,51,1.7,7,0.23,25,0.83,21,0.7,4,0.13,3,0.1,1,0.03,-,-,1,0.33,1,0.13,-,-,1,0.13,-,-,-,-
Fukuoka,288,1.45,120,1,76,0.63,417,3.48,557,4.64,60,0.5,244,2.03,180,1.5,77,0.64,62,0.52,19,0.16,-,-,19,0.73,-,-,2,0.13,6,0.4,1,0.07,-,-
Saga,39,1,19,0.83,26,1.13,47,2.04,22,0.96,11,0.48,48,2.09,32,1.39,8,0.35,15,0.65,1,0.04,-,-,2,0.5,-,-,-,-,2,0.33,-,-,-,-
Nagasaki,45,0.64,22,0.5,30,0.68,71,1.61,89,2.02,29,0.66,101,2.3,58,1.32,17,0.39,11,0.25,2,0.05,-,-,2,0.25,-,-,-,-,2,0.17,-,-,-,-
Kumamoto,90,1.13,37,0.74,24,0.48,71,1.42,331,6.62,12,0.24,103,2.06,68,1.36,28,0.56,31,0.62,6,0.12,-,-,19,2.11,-,-,-,-,2,0.13,-,-,-,-
Oita,41,0.71,25,0.69,10,0.28,28,0.78,207,5.75,8,0.22,37,1.03,82,2.28,21,0.58,15,0.42,2,0.06,-,-,6,1.2,-,-,-,-,-,-,-,-,-,-
Miyazaki,108,1.83,17,0.47,29,0.81,65,1.81,152,4.22,3,0.08,34,0.94,37,1.03,23,0.64,18,0.5,1,0.03,-,-,11,1.83,-,-,-,-,1,0.14,-,-,-,-
Kagoshima,153,1.66,61,1.13,44,0.81,84,1.56,214,3.96,7,0.13,51,0.94,50,0.93,22,0.41,69,1.28,4,0.07,-,-,7,1,-,-,-,-,1,0.08,-,-,-,-
Okinawa,504,8.69,2,0.06,35,1.03,29,0.85,64,1.88,16,0.47,10,0.29,7,0.21,11,0.32,8,0.24,2,0.06,-,-,9,1,-,-,1,0.14,1,0.14,-,-,-,-
