2-3　都道府県別人口（大正９年～平成30年）,,,,,,,,,2-3  Population by Prefecture (1920 to 2018),,,,,,,,2-3　都道府県別人口（大正９年～平成30年）（続き）,,,,,,,,,,2-3  Population by Prefecture (1920 to 2018) (Cont'd),,,,,,,
,,,,,,,,,,,,,,,,,,,,,,,,,,,,,,,,,,
　「国勢調査」及び「人口推計」による。10月１日現在。ただし，昭和20年は「人口調査」（11月１日現在）による。昭和20年以前は現在人口，25年以降は常住人口である。沖縄県は昭和25年以前が現在人口，30年以降が常住人口である。,,,,,,,,,"  Data are based on the Population Census and the Population Estimates. As of 1 October. However, for 1945, the Population Survey (as of 1 November).  Referring to the de facto population up to 1945; and the de jure population from 1950.  As regards with Okinawa prefecture, de facto population up to 1950, and de jure population from 1955.　",,,,,,,,,,,,,,,,,,,,,,,,,
"（単位　人口　1,000）",,,,,,,,,,,,,,,,(Population in thousand),"（単位　人口　1,000）",,,,,,,,,,,,,,,,,(Population in thousand)
,,,,大正9年人口,14年人口,昭和5年人口,10年人口,15年人口,20年人口,25年人口,30年人口,35年人口,40年人口,45年人口,50年人口,"都道
府県",,,,,昭和55年人口,60年人口,平成2年人口,7年人口,12年人口,17年人口,22年人口,27年,,,,,30年人口,
,,,,Population 1920,Population 1925,Population 1930,Population 1935,Population 1940,Population 1945,Population 1950,Population 1955,Population 1960,Population 1965,Population 1970,Population 1975,,,,,,Population 1980,Population 1985,Population 1990,Population 1995,Population 2000,Population 2005,Population 2010,2015,,,,,Population 2018,
,,,,,,,,,,,,,,,,,,,,,,,,,,,,,,,平成22～27年人口増減率,人口密度,,
都道府県,,Prefecture,,,,,,,,,,,,,,,都道府県,,Prefecture,,,,,　,,,,人口,男,女,,（人/km2）,,"都道
府県"
,,,,,,,,,,,,,,,,,,,,,,,,,,,,Population,Male,Female,Rate of population change (2010-15) ,"Population density
 (per km2)",,
,,,,,,,,,,,,1),,,,,,,,,,,,,,,,,,,(%),2),,
,,,,,,,,,,,,,,,,,,,,,,,,,,,,,,,,,,
全国,,Japan,,"55,963","59,737","64,450","69,254","73,114","71,998","84,115","90,077","94,302","99,209","104,665","111,940",全国,全国,,Japan,,"117,060","121,049","123,611","125,570","126,926","127,768","128,057","127,095","61,842","65,253",-0.8,340.8,"126,443",全国
1,北海道,Hokkaido,,"2,359","2,499","2,812","3,068","3,273","3,518","4,296","4,773","5,039","5,172","5,184","5,338",1,1,北海道,Hokkaido,,"5,576","5,679","5,644","5,692","5,683","5,628","5,506","5,382","2,537","2,845",-2.3,68.6,"5,286",1
2,青森,Aomori,,756,813,880,967,"1,001","1,083","1,283","1,383","1,427","1,417","1,428","1,469",2,2,青森,Aomori,,"1,524","1,524","1,483","1,482","1,476","1,437","1,373","1,308",615,694,-4.7,135.6,"1,263",2
3,岩手,Iwate,,846,901,976,"1,046","1,096","1,228","1,347","1,427","1,449","1,411","1,371","1,386",3,3,岩手,Iwate,,"1,422","1,434","1,417","1,420","1,416","1,385","1,330","1,280",616,664,-3.8,83.8,"1,241",3
4,宮城,Miyagi,,962,"1,044","1,143","1,235","1,271","1,462","1,663","1,727","1,743","1,753","1,819","1,955",4,4,宮城,Miyagi,,"2,082","2,176","2,249","2,329","2,365","2,360","2,348","2,334","1,140","1,194",-0.6,320.5,"2,316",4
5,秋田,Akita,,899,936,988,"1,038","1,052","1,212","1,309","1,349","1,336","1,280","1,241","1,232",5,5,秋田,Akita,,"1,257","1,254","1,227","1,214","1,189","1,146","1,086","1,023",480,543,-5.8,87.9,981,5
6,山形,Yamagata,,969,"1,027","1,080","1,117","1,119","1,326","1,357","1,354","1,321","1,263","1,226","1,220",6,6,山形,Yamagata,,"1,252","1,262","1,258","1,257","1,244","1,216","1,169","1,124",540,584,-3.9,120.5,"1,090",6
7,福島,Fukushima,,"1,363","1,438","1,508","1,582","1,626","1,957","2,062","2,095","2,051","1,984","1,946","1,971",7,7,福島,Fukushima,,"2,035","2,080","2,104","2,134","2,127","2,091","2,029","1,914",946,968,-5.7,138.9,"1,864",7
8,茨城,Ibaraki,,"1,350","1,409","1,487","1,549","1,620","1,944","2,039","2,064","2,047","2,056","2,144","2,342",8,8,茨城,Ibaraki,,"2,558","2,725","2,845","2,956","2,986","2,975","2,970","2,917","1,454","1,463",-1.8,478.4,"2,877",8
9,栃木,Tochigi,,"1,046","1,090","1,142","1,195","1,207","1,546","1,550","1,548","1,514","1,522","1,580","1,698",9,9,栃木,Tochigi,,"1,792","1,866","1,935","1,984","2,005","2,017","2,008","1,974",982,993,-1.7,308.1,"1,946",9
10,群馬,Gumma,,"1,053","1,119","1,186","1,242","1,299","1,546","1,601","1,614","1,578","1,606","1,659","1,756",10,10,群馬,Gumma,,"1,849","1,921","1,966","2,004","2,025","2,024","2,008","1,973",973,"1,000",-1.7,310.1,"1,952",10
11,埼玉,Saitama,,"1,320","1,394","1,459","1,529","1,608","2,047","2,146","2,263","2,431","3,015","3,866","4,821",11,11,埼玉,Saitama,,"5,420","5,864","6,405","6,759","6,938","7,054","7,195","7,267","3,628","3,638",1.0,"1,913.4","7,330",11
12,千葉,Chiba,,"1,336","1,399","1,470","1,546","1,588","1,967","2,139","2,205","2,306","2,702","3,367","4,149",12,12,千葉,Chiba,,"4,735","5,148","5,555","5,798","5,926","6,056","6,216","6,223","3,096","3,127",0.1,"1,206.5","6,255",12
13,東京,Tokyo,,"3,699","4,485","5,409","6,370","7,355","3,488","6,278","8,037","9,684","10,869","11,408","11,674",13,13,東京,Tokyo,,"11,618","11,829","11,856","11,774","12,064","12,577","13,159","13,515","6,667","6,849",2.7,"6,168.7","13,822",13
14,神奈川,Kanagawa,,"1,323","1,417","1,620","1,840","2,189","1,866","2,488","2,919","3,443","4,431","5,472","6,398",14,14,神奈川,Kanagawa,,"6,924","7,432","7,980","8,246","8,490","8,792","9,048","9,126","4,559","4,567",0.9,"3,777.7","9,177",14
15,新潟,Niigata,,"1,776","1,850","1,933","1,996","2,064","2,390","2,461","2,473","2,442","2,399","2,361","2,392",15,15,新潟,Niigata,,"2,451","2,478","2,475","2,488","2,476","2,431","2,374","2,304","1,115","1,189",-3.0,183.1,"2,246",15
16,富山,Toyama,,724,749,779,799,823,954,"1,009","1,021","1,033","1,025","1,030","1,071",16,16,富山,Toyama,,"1,103","1,118","1,120","1,123","1,121","1,112","1,093","1,066",515,551,-2.5,251.0,"1,050",16
17,石川,Ishikawa,,747,751,757,768,758,888,957,966,973,980,"1,002","1,070",17,17,石川,Ishikawa,,"1,119","1,152","1,165","1,180","1,181","1,174","1,170","1,154",559,595,-1.3,275.7,"1,143",17
18,福井,Fukui,,599,598,618,647,644,725,752,754,753,751,744,774,18,18,福井,Fukui,,794,818,824,827,829,822,806,787,381,405,-2.4,187.7,774,18
19,山梨,Yamanashi,,583,601,631,647,663,839,811,807,782,763,762,783,19,19,山梨,Yamanashi,,804,833,853,882,888,885,863,835,408,427,-3.3,187.0,817,19
20,長野,Nagano,,"1,563","1,629","1,717","1,714","1,711","2,121","2,061","2,021","1,981","1,958","1,957","2,018",20,20,長野,Nagano,,"2,084","2,137","2,157","2,194","2,215","2,196","2,152","2,099","1,022","1,077",-2.5,154.8,"2,063",20
21,岐阜,Gifu,,"1,070","1,133","1,178","1,226","1,265","1,519","1,545","1,584","1,638","1,700","1,759","1,868",21,21,岐阜,Gifu,,"1,960","2,029","2,067","2,100","2,108","2,107","2,081","2,032",984,"1,048",-2.3,191.3,"1,997",21
22,静岡,Shizuoka,,"1,550","1,671","1,798","1,940","2,018","2,220","2,471","2,650","2,756","2,913","3,090","3,309",22,22,静岡,Shizuoka,,"3,447","3,575","3,671","3,738","3,767","3,792","3,765","3,700","1,821","1,879",-1.7,475.8,"3,659",22
23,愛知,Aichi,,"2,090","2,319","2,567","2,863","3,167","2,858","3,391","3,769","4,206","4,799","5,386","5,924",23,23,愛知,Aichi,,"6,222","6,455","6,691","6,868","7,043","7,255","7,411","7,483","3,741","3,742",1.0,"1,446.7","7,537",23
24,三重,Mie,,"1,069","1,108","1,157","1,175","1,199","1,394","1,461","1,486","1,485","1,514","1,543","1,626",24,24,三重,Mie,,"1,687","1,747","1,793","1,841","1,857","1,867","1,855","1,816",884,932,-2.1,314.5,"1,791",24
25,滋賀,Shiga,,651,662,692,711,704,861,861,854,843,853,890,986,25,25,滋賀,Shiga,,"1,080","1,156","1,222","1,287","1,343","1,380","1,411","1,413",697,716,0.2,351.7,"1,412",25
26,京都,Kyoto,,"1,287","1,406","1,553","1,703","1,730","1,604","1,833","1,935","1,993","2,103","2,250","2,425",26,26,京都,Kyoto,,"2,527","2,587","2,602","2,630","2,644","2,648","2,636","2,610","1,249","1,361",-1.0,566.0,"2,591",26
27,大阪,Osaka,,"2,588","3,060","3,540","4,297","4,793","2,801","3,857","4,618","5,505","6,657","7,620","8,279",27,27,大阪,Osaka,,"8,473","8,668","8,735","8,797","8,805","8,817","8,865","8,839","4,256","4,583",-0.3,"4,639.8","8,813",27
28,兵庫,Hyogo,,"2,302","2,455","2,646","2,923","3,221","2,822","3,310","3,621","3,906","4,310","4,668","4,992",28,28,兵庫,Hyogo,,"5,145","5,278","5,405","5,402","5,551","5,591","5,588","5,535","2,642","2,893",-1.0,658.8,"5,484",28
29,奈良,Nara,,565,584,596,620,621,780,764,777,781,826,930,"1,077",29,29,奈良,Nara,,"1,209","1,305","1,375","1,431","1,443","1,421","1,401","1,364",644,720,-2.6,369.6,"1,339",29
30,和歌山,Wakayama,,750,788,831,864,865,936,982,"1,007","1,002","1,027","1,043","1,072",30,30,和歌山,Wakayama,,"1,087","1,087","1,074","1,080","1,070","1,036","1,002",964,453,510,-3.9,203.9,935,30
31,鳥取,Tottori,,455,472,489,490,484,563,600,614,599,580,569,581,31,31,鳥取,Tottori,,604,616,616,615,613,607,589,573,274,300,-2.6,163.5,560,31
32,島根,Shimane,,715,722,740,747,741,860,913,929,889,822,774,769,32,32,島根,Shimane,,785,795,781,771,762,742,717,694,333,361,-3.2,103.5,680,32
33,岡山,Okayama,,"1,218","1,238","1,284","1,333","1,329","1,565","1,661","1,690","1,670","1,645","1,707","1,814",33,33,岡山,Okayama,,"1,871","1,917","1,926","1,951","1,951","1,957","1,945","1,922",922,999,-1.2,270.1,"1,898",33
34,広島,Hiroshima,,"1,542","1,618","1,692","1,805","1,870","1,885","2,082","2,149","2,184","2,281","2,436","2,646",34,34,広島,Hiroshima,,"2,739","2,819","2,850","2,882","2,879","2,877","2,861","2,844","1,376","1,468",-0.6,335.4,"2,817",34
35,山口,Yamaguchi,,"1,041","1,095","1,136","1,191","1,294","1,356","1,541","1,610","1,602","1,544","1,511","1,555",35,35,山口,Yamaguchi,,"1,587","1,602","1,573","1,556","1,528","1,493","1,451","1,405",665,740,-3.2,229.8,"1,370",35
36,徳島,Tokushima,,670,690,717,729,719,836,879,878,847,815,791,805,36,36,徳島,Tokushima,,825,835,832,832,824,810,785,756,360,396,-3.8,182.3,736,36
37,香川,Kagawa,,678,700,733,749,730,864,946,944,919,901,908,961,37,37,香川,Kagawa,,"1,000","1,023","1,023","1,027","1,023","1,012",996,976,472,504,-2.0,520.2,962,37
38,愛媛,Ehime,,"1,047","1,096","1,142","1,165","1,179","1,361","1,522","1,541","1,501","1,446","1,418","1,465",38,38,愛媛,Ehime,,"1,507","1,530","1,515","1,507","1,493","1,468","1,431","1,385",654,731,-3.2,244.1,"1,352",38
39,高知,Kochi,,671,687,718,715,709,776,874,883,855,813,787,808,39,39,高知,Kochi,,831,840,825,817,814,796,764,728,343,386,-4.7,102.5,706,39
40,福岡,Fukuoka,,"2,188","2,302","2,527","2,756","3,094","2,747","3,530","3,860","4,007","3,965","4,027","4,293",40,40,福岡,Fukuoka,,"4,553","4,719","4,811","4,933","5,016","5,050","5,072","5,102","2,410","2,691",0.6,"1,023.1","5,107",40
41,佐賀,Saga,,674,685,692,686,702,830,945,974,943,872,838,838,41,41,佐賀,Saga,,866,880,878,884,877,866,850,833,393,440,-2.0,341.2,819,41
42,長崎,Nagasaki,,"1,136","1,164","1,233","1,297","1,370","1,319","1,645","1,748","1,760","1,641","1,570","1,572",42,42,長崎,Nagasaki,,"1,591","1,594","1,563","1,545","1,517","1,479","1,427","1,377",646,731,-3.5,333.3,"1,341",42
43,熊本,Kumamoto,,"1,233","1,296","1,354","1,387","1,368","1,556","1,828","1,896","1,856","1,771","1,700","1,715",43,43,熊本,Kumamoto,,"1,790","1,838","1,840","1,860","1,859","1,842","1,817","1,786",841,945,-1.7,241.1,"1,757",43
44,大分,Oita,,860,915,946,980,973,"1,125","1,253","1,277","1,240","1,187","1,156","1,190",44,44,大分,Oita,,"1,229","1,250","1,237","1,231","1,221","1,210","1,197","1,166",552,614,-2.5,183.9,"1,144",44
45,宮崎,Miyazaki,,651,691,760,824,840,914,"1,091","1,139","1,135","1,081","1,051","1,085",45,45,宮崎,Miyazaki,,"1,152","1,176","1,169","1,176","1,170","1,153","1,135","1,104",519,585,-2.7,142.7,"1,081",45
46,鹿児島,Kagoshima,,"1,416","1,472","1,557","1,591","1,589","1,538","1,804","2,044","1,963","1,854","1,729","1,724",46,46,鹿児島,Kagoshima,,"1,785","1,819","1,798","1,794","1,786","1,753","1,706","1,648",773,875,-3.4,179.4,"1,614",46
47,沖縄,Okinawa ,3),572,558,578,592,575,...,a)915,801,883,934,945,"1,043",47,47,沖縄,Okinawa ,3),"1,107","1,179","1,222","1,273","1,318","1,362","1,393","1,434",705,729,2.9,628.4,"1,448",47
,,,,,,,,,,,,,,,,,,,,,,,,,,,,,,,,,,
,,,,,,,,,,,,,,,,,,,,,,,,,,,,,,,,,,
1)　全国は，長野県と岐阜県の境界紛争人口を含むが，長野県及び岐阜県には含まれない。　3)　昭和25，30，35年は12月１日現在。　a)　奄美群島の人口を含む。,,,,,,,,,"1)  Although figures for Japan include population under boundary dispute between Nagano and Gifu prefecture, each figure for Nagano and Gifu prefecture does not include population under boundary dispute between Nagano and Gifu prefecture. 3)  Figures for 1950, 1955 and 1960 are as of 1 December.  a)  Including population of Amami Islands. ",,,,,,,,"2)　人口密度算出に用いた面積には歯舞群島，色丹島，国後島，択捉島及び竹島を除く。　3)　昭和25，30，35年は12月１日現在。
資料  総務省統計局「国勢調査結果」「人口推計」",,,,,,,,,,"2)  The area used for the calculation of density excludes Habomai Islands, Shikotan Island, Kunashiri Island, Etrofu Island and Take-shima.  3)  Figures for 1950, 1955 and 1960 are as of 1 December. 
Source:  Statistics Bureau, Ministry of Internal Affairs and Communications.",,,,,,,
