1,Tokyo,12868000
3,Osaka,8801000
2,Kanagawa,8943000
5,Saitama,7130000
4,Aichi,7418000
6,Chiba,6139000
9,Fukuoka,5053000
7,Hyogo,5583000
30,Okinawa,1382000
13,Kyoto,2622000
40,Kagawa,999000
11,Ibaraki,2960000
10,Shizuoka,3792000
29,Nara,1399000
28,Shiga,1405000
42,Saga,852000
12,Hiroshima,2863000
27,Nagasaki,1430000
15,Miyagi,2336000
22,Mie,1870000
19,Gunma,2007000
20,Tochigi,2006000
35,Ishikawa,1165000
21,Okayama,1942000
38,Toyama,1095000
26,Ehime,1436000
23,Kumamoto,1814000
25,Yamaguchi,1455000
39,Wakayama,1004000
17,Gifu,2092000
43,Fukui,808000
41,Yamanashi,867000
33,Oita,1195000
14,Niigata,2378000
44,Tokushima,789000
24,Kagoshima,1708000
47,Tottori,591000
16,Nagano,2159000
36,Miyazaki,1132000
18,Fukushima,2040000
31,Aomori,1379000
34,Yamagata,1179000
46,Shimane,718000
45,Kochi,766000
37,Akita,1096000
32,Iwate,1340000
8,Hokkaido,5507000
