1,5015,25.33,5015,25.33
2,10481,52.93000000000001,15496,78.26
3,13711,69.24999999999999,29207,147.51
4,12795,64.62,42002,212.13
5,8645,43.66,50647,255.79
6,5488,27.72,56135,283.51
7,2768,13.980000000000018,58903,297.49
8,1837,9.279999999999973,60740,306.77
9,1154,5.830000000000041,61894,312.6
10,775,3.909999999999968,62669,316.51
11,609,3.079999999999984,63278,319.59
12,516,2.6000000000000227,63794,322.19
13,309,1.5600000000000023,64103,323.75
14,184,0.9300000000000068,64287,324.68
15,332,1.6800000000000068,64619,326.36
16,247,1.25,64866,327.61
17,74,12.389999999999986,64940,340.0
18,228,-10.870000000000005,65168,329.13
19,64,0.3199999999999932,65232,329.45
20,136,0.6899999999999977,65368,330.14
21,97,0.4900000000000091,65465,330.63
22,93,0.4700000000000273,65558,331.1
23,84,0.42999999999995,65642,331.53
24,58,0.29000000000002046,65700,331.82
25,42,0.20999999999997954,65742,332.03
26,20,0.10000000000002274,65762,332.13
27,36,0.18000000000000682,65798,332.31
28,41,0.20999999999997954,65839,332.52
29,30,0.1500000000000341,65869,332.67
30,32,0.15999999999996817,65901,332.83
31,23,0.12000000000000455,65924,332.95
32,23,0.12000000000000455,65947,333.07
33,38,0.18999999999999773,65985,333.26
34,30,0.1500000000000341,66015,333.41
35,37,0.18999999999999773,66052,333.6
36,117,0.589999999999975,66169,334.19
37,238,1.1999999999999886,66407,335.39
38,318,1.6000000000000227,66725,336.99
39,234,1.1899999999999977,66959,338.18
40,456,2.3000000000000114,67415,340.48
41,349,1.759999999999991,67764,342.24
42,240,1.2099999999999795,68004,343.45
43,288,1.4600000000000364,68292,344.91
44,434,2.1899999999999977,68726,347.1
45,402,2.0299999999999727,69128,349.13
46,640,3.230000000000018,69768,352.36
47,961,4.860000000000014,70729,357.22
48,1247,6.2999999999999545,71976,363.52
49,1953,9.860000000000014,73929,373.38
50,3165,15.980000000000018,77094,389.36
51,4303,21.74000000000001,81397,411.1
52,4665,23.560000000000002,86062,434.66
