1,1173,16.29,1173,16.29
2,2891,40.15,4064,56.44
3,3529,49.019999999999996,7593,105.46
4,3650,50.69000000000001,11243,156.15
5,2279,31.659999999999997,13522,187.81
6,1381,19.180000000000007,14903,206.99
7,594,8.25,15497,215.24
8,404,5.609999999999985,15901,220.85
9,300,4.159999999999997,16201,225.01
10,196,2.730000000000018,16397,227.74
11,122,1.6899999999999977,16519,229.43
12,93,1.289999999999992,16612,230.72
13,61,0.8499999999999943,16673,231.57
14,84,1.170000000000016,16757,232.74
15,91,1.259999999999991,16848,234.0
16,149,2.069999999999993,16997,236.07
17,171,2.3700000000000045,17168,238.44
18,44,0.6200000000000045,17212,239.06
19,40,0.5500000000000114,17252,239.61
20,62,0.8599999999999852,17314,240.47
21,45,0.6299999999999955,17359,241.1
22,21,0.28999999999999204,17380,241.39
23,25,0.35000000000002274,17405,241.74
24,22,0.29999999999998295,17427,242.04
25,9,0.12999999999999545,17436,242.17
26,6,0.0800000000000125,17442,242.25
27,2,3.4399999999999977,17444,245.69
28,2,0.030000000000001137,17446,245.72
29,5,0.06999999999999318,17451,245.79
30,0,0.0,17451,245.79
31,6,0.0800000000000125,17457,245.87
32,5,0.06999999999999318,17462,245.94
33,6,0.09000000000000341,17468,246.03
34,27,0.37999999999999545,17495,246.41
35,4,0.05000000000001137,17499,246.46
36,24,0.3400000000000034,17523,246.8
37,31,0.4399999999999977,17554,247.24
38,54,0.7599999999999909,17608,248.0
39,45,0.6299999999999955,17653,248.63
40,78,1.0999999999999943,17731,249.73
41,34,0.4800000000000182,17765,250.21
42,16,0.22999999999998977,17781,250.44
43,9,0.12000000000000455,17790,250.56
44,16,0.22999999999998977,17806,250.79
45,8,0.11000000000001364,17814,250.9
46,24,0.3400000000000034,17838,251.24
47,63,0.8899999999999864,17901,252.13
48,191,2.6899999999999977,18092,254.82
49,453,6.3799999999999955,18545,261.2
50,918,12.930000000000007,19463,274.13
51,1460,20.560000000000002,20923,294.69
52,1872,26.370000000000005,22795,321.06
