1,1617,18.59,1617,18.59
2,3817,43.870000000000005,5434,62.46
3,5054,58.089999999999996,10488,120.55
4,5631,64.73,16119,185.28
5,3965,45.56999999999999,20084,230.85
6,2418,27.789999999999992,22502,258.64
7,1327,15.259999999999991,23829,273.9
8,1024,11.770000000000039,24853,285.67
9,781,8.96999999999997,25634,294.64
10,585,6.730000000000018,26219,301.37
11,374,4.300000000000011,26593,305.67
12,247,6.419999999999959,26840,312.09
13,148,1.7200000000000273,26988,313.81
14,155,1.8100000000000023,27143,315.62
15,210,2.4399999999999977,27353,318.06
16,307,3.569999999999993,27660,321.63
17,306,3.5600000000000023,27966,325.19
18,108,1.25,28074,326.44
19,103,1.1999999999999886,28177,327.64
20,132,1.5300000000000296,28309,329.17
21,72,0.839999999999975,28381,330.01
22,39,0.4600000000000364,28420,330.47
23,15,0.16999999999995907,28435,330.64
24,7,0.08000000000004093,28442,330.72
25,6,0.06999999999999318,28448,330.79
26,0,0.0,28448,330.79
27,3,0.03999999999996362,28451,330.83
28,0,0.0,28451,330.83
29,0,0.0,28451,330.83
30,0,0.0,28451,330.83
31,0,0.0,28451,330.83
32,3,0.03000000000002956,28454,330.86
33,2,0.01999999999998181,28456,330.88
34,4,0.05000000000001137,28460,330.93
35,10,0.12000000000000455,28470,331.05
36,18,0.20999999999997954,28488,331.26
37,9,0.10000000000002274,28497,331.36
38,6,0.06999999999999318,28503,331.43
39,20,0.2300000000000182,28523,331.66
40,10,0.1199999999999477,28533,331.78
41,9,0.10000000000002274,28542,331.88
42,9,0.11000000000001364,28551,331.99
43,18,0.20999999999997954,28569,332.2
44,35,0.4000000000000341,28604,332.6
45,45,0.5299999999999727,28649,333.13
46,113,1.3100000000000023,28762,334.44
47,214,2.490000000000009,28976,336.93
48,354,4.1200000000000045,29330,341.05
49,789,9.170000000000016,30119,350.22
50,1571,18.269999999999982,31690,368.49
51,2314,26.909999999999968,34004,395.4
52,2538,29.510000000000048,36542,424.91
