1,1358,19.4,1358,19.4
2,3406,48.660000000000004,4764,68.06
3,3876,55.370000000000005,8640,123.43
4,3900,55.70999999999998,12540,179.14
5,2742,39.170000000000016,15282,218.31
6,1768,25.25999999999999,17050,243.57
7,829,11.840000000000003,17879,255.41
8,901,12.880000000000024,18780,268.29
9,535,7.639999999999986,19315,275.93
10,418,5.96999999999997,19733,281.9
11,346,4.939999999999998,20079,286.84
12,339,4.850000000000023,20418,291.69
13,230,3.2800000000000296,20648,294.97
14,170,2.42999999999995,20818,297.4
15,177,2.5300000000000296,20995,299.93
16,184,2.6299999999999955,21179,302.56
17,123,6.160000000000025,21302,308.72
18,63,0.9199999999999591,21365,309.64
19,23,0.3300000000000409,21388,309.97
20,47,0.67999999999995,21435,310.65
21,50,0.7300000000000182,21485,311.38
22,56,0.8100000000000023,21541,312.19
23,20,0.29000000000002046,21561,312.48
24,4,0.060000000000002274,21565,312.54
25,1,0.009999999999990905,21566,312.55
26,7,0.0999999999999659,21573,312.65
27,12,0.18000000000000682,21585,312.83
28,7,0.10000000000002274,21592,312.93
29,19,0.2699999999999818,21611,313.2
30,13,0.18999999999999773,21624,313.39
31,3,0.040000000000020464,21627,313.43
32,2,0.029999999999972715,21629,313.46
33,4,0.060000000000002274,21633,313.52
34,5,0.06999999999999318,21638,313.59
35,4,0.060000000000002274,21642,313.65
36,59,0.8600000000000136,21701,314.51
37,182,2.6299999999999955,21883,317.14
38,80,1.160000000000025,21963,318.3
39,45,0.6599999999999682,22008,318.96
40,65,0.9399999999999977,22073,319.9
41,59,0.8500000000000227,22132,320.75
42,60,0.8700000000000045,22192,321.62
43,45,0.6599999999999682,22237,322.28
44,49,0.7100000000000364,22286,322.99
45,162,2.339999999999975,22448,325.33
46,254,3.680000000000007,22702,329.01
47,289,4.189999999999998,22991,333.2
48,398,5.770000000000039,23389,338.97
49,402,5.829999999999984,23791,344.8
50,849,12.300000000000011,24640,357.1
51,1226,17.769999999999982,25866,374.87
52,1432,20.75,27298,395.62
