1,934,16.1,934,16.1
2,2197,37.879999999999995,3131,53.98
3,3511,60.54,6642,114.52
4,3796,65.45,10438,179.97
5,3024,52.129999999999995,13462,232.1
6,2037,35.12000000000003,15499,267.22
7,1118,19.279999999999973,16617,286.5
8,708,12.20999999999998,17325,298.71
9,491,8.460000000000036,17816,307.17
10,336,5.800000000000011,18152,312.97
11,248,4.269999999999982,18400,317.24
12,212,3.659999999999968,18612,320.9
13,130,2.240000000000009,18742,323.14
14,85,1.4600000000000364,18827,324.6
15,83,1.42999999999995,18910,326.03
16,100,1.7300000000000182,19010,327.76
17,64,1.1000000000000227,19074,328.86
18,73,1.259999999999991,19147,330.12
19,34,0.589999999999975,19181,330.71
20,28,0.4800000000000182,19209,331.19
21,16,0.28000000000002956,19225,331.47
22,6,0.0999999999999659,19231,331.57
23,8,0.13999999999998636,19239,331.71
24,5,0.08000000000004093,19244,331.79
25,1,0.01999999999998181,19245,331.81
26,0,0.0,19245,331.81
27,4,0.06999999999999318,19249,331.88
28,3,0.05000000000001137,19252,331.93
29,5,0.08999999999997499,19257,332.02
30,0,0.0,19257,332.02
31,2,0.03000000000002956,19259,332.05
32,3,0.05000000000001137,19262,332.1
33,12,0.20999999999997954,19274,332.31
34,27,0.46999999999997044,19301,332.78
35,16,0.27000000000003865,19317,333.05
36,34,0.589999999999975,19351,333.64
37,91,1.5699999999999932,19442,335.21
38,60,1.0300000000000296,19502,336.24
39,79,1.3600000000000136,19581,337.6
40,30,0.5199999999999818,19611,338.12
41,34,0.589999999999975,19645,338.71
42,27,0.4600000000000364,19672,339.17
43,41,0.7099999999999795,19713,339.88
44,22,0.37999999999999545,19735,340.26
45,25,0.4300000000000068,19760,340.69
46,25,0.4300000000000068,19785,341.12
47,118,2.0400000000000205,19903,343.16
48,232,4.0,20135,347.16
49,620,10.67999999999995,20755,357.84
50,1137,19.610000000000014,21892,377.45
51,1677,28.910000000000025,23569,406.36
52,1785,30.779999999999973,25354,437.14
