1,599,15.36,599,15.36
2,1801,46.18,2400,61.54
3,2081,53.36000000000001,4481,114.9
4,1923,49.31,6404,164.21
5,1294,33.16999999999999,7698,197.38
6,691,17.72,8389,215.1
7,356,9.129999999999995,8745,224.23
8,271,6.950000000000017,9016,231.18
9,160,4.099999999999994,9176,235.28
10,95,2.4399999999999977,9271,237.72
11,140,3.5900000000000034,9411,241.31
12,140,3.5900000000000034,9551,244.9
13,96,2.460000000000008,9647,247.36
14,62,1.589999999999975,9709,248.95
15,86,2.200000000000017,9795,251.15
16,106,2.719999999999999,9901,253.87
17,60,1.539999999999992,9961,255.41
18,16,0.4099999999999966,9977,255.82
19,30,0.7699999999999818,10007,256.59
20,37,0.9500000000000455,10044,257.54
21,15,0.37999999999999545,10059,257.92
22,7,0.18000000000000682,10066,258.1
23,7,0.17999999999994998,10073,258.28
24,11,0.28000000000002956,10084,258.56
25,2,0.060000000000002274,10086,258.62
26,9,0.2300000000000182,10095,258.85
27,8,0.19999999999998863,10103,259.05
28,2,0.05000000000001137,10105,259.1
29,0,0.0,10105,259.1
30,5,0.12999999999999545,10110,259.23
31,0,0.0,10110,259.23
32,3,6.899999999999977,10113,266.13
33,3,0.07999999999998408,10116,266.21
34,6,0.160000000000025,10122,266.37
35,3,0.07999999999998408,10125,266.45
36,13,0.34000000000003183,10138,266.79
37,61,1.599999999999966,10199,268.39
38,79,2.080000000000041,10278,270.47
39,66,1.7399999999999523,10344,272.21
40,67,1.7600000000000477,10411,273.97
41,108,2.849999999999966,10519,276.82
42,67,1.759999999999991,10586,278.58
43,39,1.0300000000000296,10625,279.61
44,55,1.4399999999999977,10680,281.05
45,52,1.3700000000000045,10732,282.42
46,53,1.3999999999999773,10785,283.82
47,91,2.3899999999999864,10876,286.21
48,143,3.7600000000000477,11019,289.97
49,241,6.349999999999966,11260,296.32
50,486,12.79000000000002,11746,309.11
51,628,16.519999999999982,12374,325.63
52,940,24.74000000000001,13314,350.37
