1,3068,14.54,3068,14.54
2,6292,29.61,9360,44.15
3,13077,61.190000000000005,22437,105.34
4,13642,64.03999999999999,36079,169.38
5,13691,64.28,49770,233.66
6,10513,50.690000000000026,60283,284.35
7,6371,28.579999999999984,66654,312.93
8,4761,22.349999999999966,71415,335.28
9,3263,15.32000000000005,74678,350.6
10,2091,9.819999999999993,76769,360.42
11,1371,6.430000000000007,78140,366.85
12,692,3.25,78832,370.1
13,412,1.9399999999999977,79244,372.04
14,182,0.8499999999999659,79426,372.89
15,137,0.6500000000000341,79563,373.54
16,165,0.7699999999999818,79728,374.31
17,110,2.2799999999999727,79838,376.59
18,42,0.20000000000004547,79880,376.79
19,41,0.19999999999998863,79921,376.99
20,51,0.2400000000000091,79972,377.23
21,18,0.07999999999998408,79990,377.31
22,27,0.12999999999999545,80017,377.44
23,19,0.08999999999997499,80036,377.53
24,27,0.1300000000000523,80063,377.66
25,5,0.01999999999998181,80068,377.68
26,13,0.060000000000002274,80081,377.74
27,24,0.11000000000001364,80105,377.85
28,14,0.06999999999999318,80119,377.92
29,5,0.01999999999998181,80124,377.94
30,3,0.01999999999998181,80127,377.96
31,3,0.010000000000047748,80130,377.97
32,1,0.009999999999990905,80131,377.98
33,2,0.009999999999990905,80133,377.99
34,2,0.009999999999990905,80135,378.0
35,2,0.0,80137,378.0
36,3,0.01999999999998181,80140,378.02
37,23,0.11000000000001364,80163,378.13
38,18,0.07999999999998408,80181,378.21
39,38,0.18000000000000682,80219,378.39
40,51,0.2400000000000091,80270,378.63
41,48,0.2300000000000182,80318,378.86
42,55,0.2599999999999909,80373,379.12
43,41,0.18999999999999773,80414,379.31
44,39,0.18999999999999773,80453,379.5
45,100,0.4700000000000273,80553,379.97
46,106,0.5,80659,380.47
47,104,0.48999999999995225,80763,380.96
48,176,0.8300000000000409,80939,381.79
49,521,2.4599999999999795,81460,384.25
50,814,3.829999999999984,82274,388.08
51,1830,8.640000000000043,84104,396.72
52,1968,9.279999999999973,86072,406.0
