1,2176,9.94,2176,9.94
2,2262,10.230000000000002,4438,20.17
3,3663,16.489999999999995,8101,36.66
4,5961,26.970000000000006,14062,63.63
5,10157,45.96,24219,109.59
6,12334,55.81,36553,165.4
7,8497,38.44999999999999,45050,203.85
8,7089,32.06999999999999,52139,235.92
9,6132,27.75000000000003,58271,263.67
10,4337,19.620000000000005,62608,283.29
11,3216,14.560000000000002,65824,297.85
12,2334,10.560000000000002,68158,308.41
13,1504,6.7999999999999545,69662,315.21
14,1077,4.8799999999999955,70739,320.09
15,1026,3.180000000000007,71765,323.27
16,1053,6.220000000000027,72818,329.49
17,683,1.599999999999966,73501,331.09
18,386,1.7300000000000182,73887,332.82
19,233,1.0500000000000114,74120,333.87
20,231,1.0400000000000205,74351,334.91
21,153,0.6899999999999977,74504,335.6
22,61,0.2799999999999727,74565,335.88
23,23,0.10000000000002274,74588,335.98
24,21,0.0999999999999659,74609,336.08
25,19,0.08000000000004093,74628,336.16
26,6,0.029999999999972715,74634,336.19
27,4,0.01999999999998181,74638,336.21
28,4,0.020000000000038654,74642,336.23
29,0,0.0,74642,336.23
30,1,0.0,74643,336.23
31,2,0.009999999999990905,74645,336.24
32,0,0.0,74645,336.24
33,0,0.0,74645,336.24
34,4,0.01999999999998181,74649,336.26
35,10,0.040000000000020464,74659,336.3
36,0,0.0,74659,336.3
37,1,0.009999999999990905,74660,336.31
38,1,0.0,74661,336.31
39,3,0.009999999999990905,74664,336.32
40,4,0.01999999999998181,74668,336.34
41,17,0.08000000000004093,74685,336.42
42,82,0.37000000000000455,74767,336.79
43,96,0.4300000000000068,74863,337.22
44,42,0.18999999999999773,74905,337.41
45,37,0.16999999999995907,74942,337.58
46,80,0.36000000000001364,75022,337.94
47,141,0.6299999999999955,75163,338.57
48,269,1.2099999999999795,75432,339.78
49,882,3.980000000000018,76314,343.76
50,2146,9.660000000000025,78460,353.42
51,5062,22.810000000000002,83522,376.23
52,7229,32.56,90751,408.79
