1,237,5.15,237,5.15
2,582,12.28,819,17.43
3,1672,35.57,2491,53.0
4,2332,49.620000000000005,4823,102.62
5,2394,50.93000000000001,7217,153.55
6,1920,40.849999999999994,9137,194.4
7,1193,25.389999999999986,10330,219.79
8,1012,21.53,11342,241.32
9,1001,21.30000000000001,12343,262.62
10,833,17.71999999999997,13176,280.34
11,677,14.400000000000034,13853,294.74
12,539,11.46999999999997,14392,306.21
13,486,10.340000000000032,14878,316.55
14,341,7.259999999999991,15219,323.81
15,301,6.399999999999977,15520,330.21
16,310,6.600000000000023,15830,336.81
17,188,4.0,16018,340.81
18,64,1.3600000000000136,16082,342.17
19,39,0.8299999999999841,16121,343.0
20,25,0.5299999999999727,16146,343.53
21,16,0.34000000000003183,16162,343.87
22,6,0.12999999999999545,16168,344.0
23,3,0.060000000000002274,16171,344.06
24,0,0.0,16171,344.06
25,0,0.0,16171,344.06
26,0,0.0,16171,344.06
27,0,0.0,16171,344.06
28,0,0.0,16171,344.06
29,0,0.0,16171,344.06
30,0,0.0,16171,344.06
31,0,0.0,16171,344.06
32,0,0.0,16171,344.06
33,0,0.0,16171,344.06
34,0,0.0,16171,344.06
35,0,0.0,16171,344.06
36,1,0.029999999999972715,16172,344.09
37,4,0.08000000000004093,16176,344.17
38,3,0.060000000000002274,16179,344.23
39,3,0.06999999999999318,16182,344.3
40,5,0.0999999999999659,16187,344.4
41,11,0.2400000000000091,16198,344.64
42,26,0.5500000000000114,16224,345.19
43,12,0.2599999999999909,16236,345.45
44,18,0.37999999999999545,16254,345.83
45,18,0.37999999999999545,16272,346.21
46,13,0.28000000000002956,16285,346.49
47,1,0.01999999999998181,16286,346.51
48,4,0.09000000000003183,16290,346.6
49,33,0.6999999999999886,16323,347.3
50,158,3.3600000000000136,16481,350.66
51,253,5.3799999999999955,16734,356.04
52,273,5.810000000000002,17007,361.85
