1,774,12.69,774,12.69
2,1250,20.490000000000002,2024,33.18
3,1375,22.54,3399,55.72
4,1436,23.540000000000006,4835,79.26
5,1038,17.019999999999996,5873,96.28
6,718,11.769999999999996,6591,108.05
7,479,7.8500000000000085,7070,115.9
8,402,6.589999999999989,7472,122.49
9,256,4.200000000000003,7728,126.69
10,191,3.1299999999999955,7919,129.82
11,138,2.2600000000000193,8057,132.08
12,36,0.589999999999975,8093,132.67
13,11,0.18000000000000682,8104,132.85
14,4,0.06999999999999318,8108,132.92
15,5,0.0800000000000125,8113,133.0
16,0,0.0,8113,133.0
17,4,0.06999999999999318,8117,133.07
18,1,0.010000000000019327,8118,133.08
19,1,0.01999999999998181,8119,133.1
20,0,0.0,8119,133.1
21,0,0.0,8119,133.1
22,0,0.0,8119,133.1
23,0,0.0,8119,133.1
24,0,0.0,8119,133.1
25,0,0.0,8119,133.1
26,1,0.010000000000019327,8120,133.11
27,0,0.0,8120,133.11
28,0,0.0,8120,133.11
29,1,0.01999999999998181,8121,133.13
30,0,0.0,8121,133.13
31,0,0.0,8121,133.13
32,0,2.219999999999999,8121,135.35
33,0,-2.219999999999999,8121,133.13
34,0,0.0,8121,133.13
35,0,0.0,8121,133.13
36,0,0.0,8121,133.13
37,0,0.0,8121,133.13
38,0,0.0,8121,133.13
39,0,0.0,8121,133.13
