1,1233,17.61,1233,17.61
2,1469,20.990000000000002,2702,38.6
3,1741,24.869999999999997,4443,63.47
4,2001,28.590000000000003,6444,92.06
5,1330,19.0,7774,111.06
6,814,11.629999999999995,8588,122.69
7,399,5.699999999999989,8987,128.39
8,325,4.640000000000015,9312,133.03
9,216,3.0800000000000125,9528,136.11
10,171,2.4499999999999886,9699,138.56
11,71,1.009999999999991,9770,139.57
12,42,0.5999999999999943,9812,140.17
13,21,0.30000000000001137,9833,140.47
14,14,0.19999999999998863,9847,140.67
15,9,0.13000000000002387,9856,140.8
16,0,0.0,9856,140.8
17,0,0.0,9856,140.8
18,1,0.009999999999990905,9857,140.81
19,0,0.0,9857,140.81
20,0,0.0,9857,140.81
21,1,0.020000000000010232,9858,140.83
22,0,0.0,9858,140.83
23,0,0.0,9858,140.83
24,2,0.030000000000001137,9860,140.86
25,0,0.0,9860,140.86
26,0,0.0,9860,140.86
27,0,0.0,9860,140.86
28,0,0.0,9860,140.86
29,0,0.0,9860,140.86
30,0,0.0,9860,140.86
31,0,0.0,9860,140.86
32,0,0.0,9860,140.86
33,0,0.0,9860,140.86
34,0,0.0,9860,140.86
35,0,0.0,9860,140.86
36,0,0.0,9860,140.86
37,0,0.0,9860,140.86
38,0,0.0,9860,140.86
39,0,0.0,9860,140.86
