1,763,26.31,763,26.31
2,545,18.790000000000003,1308,45.1
3,522,18.0,1830,63.1
4,474,16.35,2304,79.45
5,339,11.689999999999998,2643,91.14
6,191,6.579999999999998,2834,97.72
7,137,4.730000000000004,2971,102.45
8,65,2.239999999999995,3036,104.69
9,25,0.8599999999999994,3061,105.55
10,28,0.9699999999999989,3089,106.52
11,35,1.2000000000000028,3124,107.72
12,11,0.37999999999999545,3135,108.1
13,1,0.04000000000000625,3136,108.14
14,12,0.4099999999999966,3148,108.55
15,4,0.14000000000000057,3152,108.69
16,4,0.14000000000000057,3156,108.83
17,2,0.07000000000000739,3158,108.9
18,1,0.030000000000001137,3159,108.93
19,0,0.0,3159,108.93
20,0,0.0,3159,108.93
21,0,0.0,3159,108.93
22,0,0.0,3159,108.93
23,0,0.0,3159,108.93
24,0,0.0,3159,108.93
25,0,0.0,3159,108.93
26,0,0.0,3159,108.93
27,0,0.0,3159,108.93
28,0,0.0,3159,108.93
29,0,0.0,3159,108.93
30,0,0.0,3159,108.93
31,0,0.0,3159,108.93
32,0,0.0,3159,108.93
33,0,0.0,3159,108.93
34,0,0.0,3159,108.93
35,0,0.0,3159,108.93
36,0,0.0,3159,108.93
37,0,0.0,3159,108.93
38,0,0.0,3159,108.93
39,0,0.0,3159,108.93
