year,month,day,pcr_positive,pcr_tests,discharged,deaths,coded_time
2020,2,8,0,0,0,0,38
2020,2,9,0,0,0,0,39
2020,2,10,0,0,0,0,40
2020,2,11,0,0,0,0,41
2020,2,12,0,0,0,0,42
2020,2,13,0,0,0,0,43
2020,2,14,0,0,0,0,44
2020,2,15,0,0,0,0,45
2020,2,16,0,0,0,0,46
2020,2,17,0,0,0,0,47
2020,2,18,0,0,0,0,48
2020,2,19,0,0,0,0,49
2020,2,20,0,0,0,0,50
2020,2,21,0,0,0,0,51
2020,2,22,0,0,0,0,52
2020,2,23,0,0,0,0,53
2020,2,24,0,0,0,0,54
2020,2,25,0,0,0,0,55
2020,2,26,0,0,0,0,56
2020,2,27,0,0,0,0,57
2020,2,28,0,0,0,0,58
2020,2,29,0,0,0,0,59
2020,3,1,0,0,0,0,60
2020,3,2,0,0,0,0,61
2020,3,3,0,0,0,0,62
2020,3,4,0,0,0,0,63
2020,3,5,0,0,0,0,64
2020,3,6,0,0,0,0,65
2020,3,7,0,0,0,0,66
2020,3,8,0,0,0,0,67
2020,3,9,0,0,0,0,68
2020,3,10,0,0,0,0,69
2020,3,11,3,113,0,0,70
2020,3,12,3,122,0,0,71
2020,3,13,3,128,0,0,72
2020,3,14,3,128,0,0,73
2020,3,15,3,128,0,0,74
2020,3,16,3,138,0,0,75
2020,3,17,3,149,0,0,76
2020,3,18,3,157,0,0,77
2020,3,19,3,164,0,0,78
2020,3,20,3,164,0,0,79
2020,3,21,3,166,0,0,80
2020,3,22,4,170,0,0,81
2020,3,23,4,180,0,0,82
2020,3,24,4,192,0,0,83
2020,3,25,5,196,0,0,84
2020,3,26,6,210,0,0,85
2020,3,27,6,228,0,0,86
2020,3,28,6,228,2,0,87
2020,3,29,6,228,2,0,88
2020,3,30,6,257,2,0,89
2020,3,31,6,287,3,0,90
2020,4,1,6,287,3,0,91
2020,4,2,6,328,3,0,92
2020,4,3,7,354,3,0,93
2020,4,4,7,396,3,0,94
2020,4,5,8,409,3,0,95
2020,4,6,12,449,3,0,96
2020,4,7,13,455,3,0,97
2020,4,8,17,513,3,0,98
2020,4,9,17,528,3,0,99
2020,4,10,17,557,3,0,100
2020,4,11,19,557,3,0,101
2020,4,12,23,557,3,0,102
2020,4,13,24,657,5,0,103
2020,4,14,25,738,5,0,104
2020,4,15,28,773,5,0,105
2020,4,16,29,885,5,0,106
2020,4,17,30,977,5,0,107
2020,4,18,30,1027,5,0,108
2020,4,19,30,1049,11,0,109
2020,4,20,30,1119,15,0,110
2020,4,21,31,1130,15,0,111
2020,4,22,31,1144,15,0,112
2020,4,23,31,1156,15,0,113
2020,4,24,31,1217,16,0,114
2020,4,25,31,1217,18,0,115
2020,4,26,31,1217,18,0,116
2020,4,27,32,1225,18,0,117
2020,4,28,32,1239,23,0,118
2020,4,29,32,1265,24,0,119
2020,4,30,32,1285,24,0,120
2020,5,1,34,1290,24,0,121
2020,5,2,34,1290,24,0,122
2020,5,3,35,1290,24,0,123
2020,5,4,35,1290,24,0,124
2020,5,5,37,1290,24,0,125
2020,5,6,37,1290,24,0,126
2020,5,7,37,1455,24,0,127
2020,5,8,37,1498,33,0,128
2020,5,9,37,1521,33,0,129
2020,5,10,37,1528,33,0,130
2020,5,11,37,1528,33,0,131
2020,5,12,37,1557,33,0,132
2020,5,13,37,1557,33,0,133
2020,5,14,37,1585,33,0,134
2020,5,15,37,1598,33,0,135
2020,5,16,37,1598,33,0,136
2020,5,17,37,1598,33,0,137
2020,5,18,37,1621,34,0,138
2020,5,19,37,1628,34,0,139
2020,5,20,37,1640,34,0,140
2020,5,21,37,1647,34,0,141
2020,5,22,37,1653,34,0,142
2020,5,23,37,1656,34,0,143
2020,5,24,37,1656,34,0,144
2020,5,25,37,1657,35,0,145
2020,5,26,37,1667,35,0,146
2020,5,27,37,1669,35,0,147
2020,5,28,37,1674,35,0,148
2020,5,29,37,1679,35,0,149
2020,5,30,37,1696,35,0,150
2020,5,31,37,1701,35,0,151
2020,6,1,37,1758,35,0,152
2020,6,2,37,1771,36,0,153
2020,6,3,37,1782,36,0,154
2020,6,4,37,1794,36,0,155
2020,6,5,37,1818,36,0,156
2020,6,6,37,1837,36,0,157
2020,6,7,37,1845,36,0,158
2020,6,8,37,1858,36,0,159
2020,6,9,37,1873,36,0,160
2020,6,10,37,1886,36,0,161
2020,6,11,37,1898,36,0,162
2020,6,12,37,1914,36,0,163
2020,6,13,37,1921,36,0,164
2020,6,14,37,1929,36,0,165
2020,6,15,37,1938,36,0,166
2020,6,16,37,1965,36,0,167
2020,6,17,37,1992,36,0,168
2020,6,18,37,2021,36,0,169
2020,6,19,37,2045,36,0,170
2020,6,20,37,2051,36,0,171
2020,6,21,37,2055,36,0,172
2020,6,22,37,2088,37,0,173
2020,6,23,37,2129,37,0,174
2020,6,24,37,2160,37,0,175
2020,6,25,37,2187,37,0,176
2020,6,26,37,2202,37,0,177
2020,6,27,37,2240,37,0,178
2020,6,28,37,2243,37,0,179
2020,6,29,37,2267,37,0,180
2020,6,30,37,2306,37,0,181
2020,7,1,37,2342,37,0,182
2020,7,2,37,2372,37,0,183
2020,7,3,37,2425,37,0,184
2020,7,4,37,2435,37,0,185
2020,7,5,37,2450,37,0,186
2020,7,6,37,2485,37,0,187
2020,7,7,37,2533,37,0,188
2020,7,8,37,2542,37,0,189
2020,7,9,37,2592,37,0,190
2020,7,10,37,2616,37,0,191
2020,7,11,37,2659,37,0,192
2020,7,12,37,2662,37,0,193
2020,7,13,37,2675,37,0,194
2020,7,14,37,2739,37,0,195
2020,7,15,37,2788,37,0,196
2020,7,16,38,2828,37,0,197
2020,7,17,41,2913,37,0,198
2020,7,18,42,3133,37,0,199
2020,7,19,42,3230,37,0,200
2020,7,20,42,3260,37,0,201
2020,7,21,42,3319,37,0,202
2020,7,22,43,3375,37,0,203
2020,7,23,47,3440,37,0,204
2020,7,24,47,3511,37,0,205
2020,7,25,47,3552,37,0,206
2020,7,26,49,3563,39,0,207
2020,7,27,50,3588,39,0,208
2020,7,28,51,3736,39,0,209
2020,7,29,53,3779,39,0,210
2020,7,30,53,3860,39,0,211
2020,7,31,53,3872,41,0,212
2020,8,1,58,3929,41,0,213
2020,8,2,58,4073,43,0,214
2020,8,3,58,4091,45,0,215
2020,8,4,59,4152,46,0,216
2020,8,5,60,4166,48,0,217
2020,8,6,64,4221,49,0,218
2020,8,7,64,4232,50,0,219
2020,8,8,70,4357,50,0,220
2020,8,9,76,4430,52,0,221
2020,8,10,78,4528,53,0,222
2020,8,11,78,4706,53,0,223
2020,8,12,78,4773,53,0,224
2020,8,13,81,4869,57,0,225
2020,8,14,82,4914,58,0,226
2020,8,15,82,4978,58,0,227
2020,8,16,83,4998,58,0,228
2020,8,17,83,5050,65,0,229
2020,8,18,83,5050,65,0,230
2020,8,19,89,5267,67,0,231
2020,8,20,100,5410,70,0,232
2020,8,21,100,5538,70,0,233
2020,8,22,107,5660,74,0,234
2020,8,23,111,5726,76,0,235
2020,8,24,114,5786,76,0,236
2020,8,25,120,5909,76,0,237
2020,8,26,135,5962,77,0,238
2020,8,27,141,6195,81,0,239
2020,8,28,151,6423,87,0,240
2020,8,29,158,6570,83,0,241
2020,8,30,164,6713,84,0,242
2020,8,31,168,6790,89,0,243
2020,9,1,170,6930,89,0,244
2020,9,2,175,6976,93,0,245
2020,9,3,178,7077,103,0,246
2020,9,4,178,7077,103,0,247
2020,9,5,181,7236,108,0,248
2020,9,6,184,7271,112,0,249
2020,9,7,184,7288,129,0,250
2020,9,8,184,7349,129,0,251
2020,9,9,189,7510,147,0,252
2020,9,10,193,7640,150,1,253
2020,9,11,194,7913,151,1,254
2020,9,12,194,8068,151,1,255
2020,9,13,194,8127,151,1,256
2020,9,14,194,8252,152,1,257
2020,9,15,194,8359,168,1,258
2020,9,16,194,8534,168,1,259
2020,9,17,195,8645,170,1,260
2020,9,18,195,8727,171,1,261
2020,9,19,195,8763,173,1,262
2020,9,20,195,8829,174,1,263
2020,9,21,195,8891,177,1,264
2020,9,22,195,8960,184,1,265
2020,9,23,195,9065,184,2,266
2020,9,24,195,9263,186,2,267
2020,9,25,195,9322,188,2,268
2020,9,26,196,9386,189,2,269
2020,9,27,198,9453,190,2,270
2020,9,28,198,9601,190,2,271
2020,9,29,201,9714,190,2,272
2020,9,30,202,9786,191,2,273
2020,10,1,201,9864,191,2,274
2020,10,2,201,9915,192,2,275
2020,10,3,201,10005,193,2,276
2020,10,4,201,10079,193,2,277
2020,10,5,201,10143,193,2,278
2020,10,6,204,10197,195,2,279
2020,10,7,206,10250,197,2,280
