1,1729,19.87,1729,19.87
2,1827,20.999999999999996,3556,40.87
3,2423,27.85,5979,68.72
4,3046,35.019999999999996,9025,103.74
5,2824,32.459999999999994,11849,136.2
6,2363,27.160000000000025,14212,163.36
7,1861,21.389999999999986,16073,184.75
8,1414,16.25,17487,201.0
9,1006,11.560000000000002,18493,212.56
10,922,10.599999999999994,19415,223.16
11,735,8.450000000000017,20150,231.61
12,597,6.859999999999985,20747,238.47
13,459,5.280000000000001,21206,243.75
14,425,4.8799999999999955,21631,248.63
15,229,2.6299999999999955,21860,251.26
16,114,1.3100000000000023,21974,252.57
17,136,1.5699999999999932,22110,254.14
18,186,2.1399999999999864,22296,256.28
19,74,0.8500000000000227,22370,257.13
20,51,0.5799999999999841,22421,257.71
21,31,0.36000000000001364,22452,258.07
22,8,3.090000000000032,22460,261.16
23,9,0.1099999999999568,22469,261.27
24,9,0.10000000000002274,22478,261.37
25,3,0.040000000000020464,22481,261.41
26,3,0.029999999999972715,22484,261.44
27,6,0.06999999999999318,22490,261.51
28,9,0.11000000000001364,22499,261.62
29,1,0.009999999999990905,22500,261.63
30,2,0.01999999999998181,22502,261.65
31,2,0.020000000000038654,22504,261.67
32,4,0.05000000000001137,22508,261.72
33,15,0.17999999999994998,22523,261.9
34,6,0.07000000000005002,22529,261.97
35,4,0.03999999999996362,22533,262.01
36,3,0.040000000000020464,22536,262.05
37,6,0.06999999999999318,22542,262.12
38,10,0.11000000000001364,22552,262.23
39,10,0.12000000000000455,22562,262.35
40,3,0.029999999999972715,22565,262.38
41,6,0.06999999999999318,22571,262.45
42,14,0.17000000000001592,22585,262.62
43,18,0.20999999999997954,22603,262.83
44,23,0.2599999999999909,22626,263.09
45,27,0.32000000000005,22653,263.41
46,40,0.45999999999997954,22693,263.87
47,64,0.75,22757,264.62
48,101,1.170000000000016,22858,265.79
49,152,1.7699999999999818,23010,267.56
50,259,3.009999999999991,23269,270.57
51,540,6.28000000000003,23809,276.85
52,1045,12.149999999999977,24854,289.0
