1,591,9.09,591,9.09
2,692,10.649999999999999,1283,19.74
3,1124,17.290000000000003,2407,37.03
4,1334,20.519999999999996,3741,57.55
5,1587,24.42,5328,81.97
6,1443,22.200000000000003,6771,104.17
7,1125,17.310000000000002,7896,121.48
8,1015,15.61,8911,137.09
9,910,14.0,9821,151.09
10,701,13.319999999999993,10522,164.41
11,622,9.719999999999999,11144,174.13
12,605,9.450000000000017,11749,183.58
13,524,8.189999999999998,12273,191.77
14,357,5.569999999999993,12630,197.34
15,249,3.8899999999999864,12879,201.23
16,308,4.820000000000022,13187,206.05
17,316,4.929999999999978,13503,210.98
18,188,2.9399999999999977,13691,213.92
19,118,1.8500000000000227,13809,215.77
20,226,3.530000000000001,14035,219.3
21,213,3.329999999999984,14248,222.63
22,109,1.700000000000017,14357,224.33
23,70,1.089999999999975,14427,225.42
24,41,0.6400000000000148,14468,226.06
25,21,0.3299999999999841,14489,226.39
26,25,0.3900000000000148,14514,226.78
27,18,0.28000000000000114,14532,227.06
28,1,0.020000000000010232,14533,227.08
29,3,0.04999999999998295,14536,227.13
30,0,0.0,14536,227.13
31,0,0.0,14536,227.13
32,0,0.0,14536,227.13
33,0,0.0,14536,227.13
34,1,0.009999999999990905,14537,227.14
35,0,0.0,14537,227.14
36,0,0.0,14537,227.14
37,29,0.45000000000001705,14566,227.59
38,5,0.07999999999998408,14571,227.67
39,15,0.2400000000000091,14586,227.91
40,6,0.09000000000000341,14592,228.0
41,10,0.1599999999999966,14602,228.16
42,17,0.2599999999999909,14619,228.42
43,2,0.030000000000001137,14621,228.45
44,6,0.10000000000002274,14627,228.55
45,11,0.1699999999999875,14638,228.72
46,40,0.6200000000000045,14678,229.34
47,52,0.8199999999999932,14730,230.16
48,79,1.2299999999999898,14809,231.39
49,143,2.240000000000009,14952,233.63
50,244,3.8100000000000023,15196,237.44
51,347,5.420000000000016,15543,242.86
52,648,10.119999999999976,16191,252.98
