1,627,10.81,627,10.81
2,976,16.83,1603,27.64
3,2065,35.6,3668,63.24
4,2965,51.12,6633,114.36
5,2878,49.61999999999999,9511,163.98
6,2236,38.55000000000001,11747,202.53
7,1892,32.629999999999995,13639,235.16
8,1152,19.860000000000014,14791,255.02
9,998,17.200000000000017,15789,272.22
10,784,13.519999999999982,16573,285.74
11,659,11.360000000000014,17232,297.1
12,473,8.159999999999968,17705,305.26
13,408,7.03000000000003,18113,312.29
14,302,5.2099999999999795,18415,317.5
15,293,5.050000000000011,18708,322.55
16,303,5.229999999999961,19011,327.78
17,200,3.4400000000000546,19211,331.22
18,142,2.4499999999999886,19353,333.67
19,130,2.240000000000009,19483,335.91
20,122,2.109999999999957,19605,338.02
21,127,2.1899999999999977,19732,340.21
22,81,1.3900000000000432,19813,341.6
23,39,0.67999999999995,19852,342.28
24,30,0.5100000000000477,19882,342.79
25,48,0.8299999999999841,19930,343.62
26,22,0.37999999999999545,19952,344.0
27,6,0.10000000000002274,19958,344.1
28,9,0.15999999999996817,19967,344.26
29,20,0.34000000000003183,19987,344.6
30,11,0.18999999999999773,19998,344.79
31,32,0.5499999999999545,20030,345.34
32,11,0.18999999999999773,20041,345.53
33,6,0.11000000000001364,20047,345.64
34,39,0.6700000000000159,20086,346.31
35,41,0.7099999999999795,20127,347.02
36,50,0.8600000000000136,20177,347.88
37,16,0.28000000000002956,20193,348.16
38,8,0.12999999999999545,20201,348.29
39,17,0.2999999999999545,20218,348.59
40,5,0.08000000000004093,20223,348.67
41,1,0.01999999999998181,20224,348.69
42,5,0.08999999999997499,20229,348.78
43,14,0.2400000000000091,20243,349.02
44,17,0.29000000000002046,20260,349.31
45,62,1.0699999999999932,20322,350.38
46,56,0.9599999999999795,20378,351.34
47,130,2.25,20508,353.59
48,239,4.1200000000000045,20747,357.71
49,397,6.840000000000032,21144,364.55
50,772,13.310000000000002,21916,377.86
51,1215,20.94999999999999,23131,398.81
52,2037,35.120000000000005,25168,433.93
