1,1040,17.93,1040,17.93
2,982,16.93,2022,34.86
3,1237,21.33,3259,56.19
4,1720,29.650000000000006,4979,85.84
5,1650,28.450000000000003,6629,114.29
6,1370,23.61999999999999,7999,137.91
7,1659,28.610000000000014,9658,166.52
8,1408,24.269999999999982,11066,190.79
9,1185,20.430000000000007,12251,211.22
10,1272,21.939999999999998,13523,233.16
11,1325,22.840000000000003,14848,256.0
12,996,17.170000000000016,15844,273.17
13,748,12.899999999999977,16592,286.07
14,637,10.980000000000018,17229,297.05
15,569,9.810000000000002,17798,306.86
16,554,9.550000000000011,18352,316.41
17,538,14.989999999999952,18890,331.4
18,505,8.860000000000014,19395,340.26
19,455,7.990000000000009,19850,348.25
20,439,7.699999999999989,20289,355.95
21,375,6.579999999999984,20664,362.53
22,332,5.82000000000005,20996,368.35
23,334,5.859999999999957,21330,374.21
24,376,6.600000000000023,21706,380.81
25,461,8.079999999999984,22167,388.89
26,472,8.29000000000002,22639,397.18
27,510,8.939999999999998,23149,406.12
28,653,11.45999999999998,23802,417.58
29,591,10.370000000000005,24393,427.95
30,540,9.470000000000027,24933,437.42
31,569,9.979999999999961,25502,447.4
32,425,7.460000000000036,25927,454.86
33,274,4.810000000000002,26201,459.67
34,170,2.9799999999999613,26371,462.65
35,190,3.330000000000041,26561,465.98
36,222,3.8999999999999773,26783,469.88
37,231,4.050000000000011,27014,473.93
38,291,5.110000000000014,27305,479.04
39,382,6.699999999999989,27687,485.74
40,355,6.21999999999997,28042,491.96
41,240,4.220000000000027,28282,496.18
42,289,5.069999999999993,28571,501.25
43,277,4.860000000000014,28848,506.11
44,230,4.029999999999973,29078,510.14
45,219,3.840000000000032,29297,513.98
46,238,4.17999999999995,29535,518.16
47,283,4.960000000000036,29818,523.12
48,348,6.110000000000014,30166,529.23
49,410,7.189999999999941,30576,536.42
50,605,10.620000000000005,31181,547.04
51,1069,18.75,32250,565.79
52,1561,27.389999999999986,33811,593.18
