1,680,8.95,680,8.95
2,956,12.580000000000002,1636,21.53
3,1391,18.299999999999997,3027,39.83
4,1737,22.85,4764,62.68
5,1865,24.54,6629,87.22
6,1755,23.099999999999994,8384,110.32
7,1657,21.80000000000001,10041,132.12
8,1406,18.5,11447,150.62
9,1272,16.74000000000001,12719,167.36
10,897,11.799999999999983,13616,179.16
11,844,11.099999999999994,14460,190.26
12,660,8.689999999999998,15120,198.95
13,661,8.689999999999998,15781,207.64
14,479,6.310000000000002,16260,213.95
15,327,4.300000000000011,16587,218.25
16,398,5.240000000000009,16985,223.49
17,267,3.509999999999991,17252,227.0
18,174,2.289999999999992,17426,229.29
19,129,1.700000000000017,17555,230.99
20,62,0.8100000000000023,17617,231.8
21,23,0.3100000000000023,17640,232.11
22,9,0.10999999999998522,17649,232.22
23,15,0.19999999999998863,17664,232.42
24,3,0.040000000000020464,17667,232.46
25,2,0.030000000000001137,17669,232.49
26,3,0.03999999999999204,17672,232.53
27,1,0.009999999999990905,17673,232.54
28,1,0.010000000000019327,17674,232.55
29,0,0.0,17674,232.55
30,0,0.0,17674,232.55
31,0,0.0,17674,232.55
32,6,0.07999999999998408,17680,232.63
33,4,0.05000000000001137,17684,232.68
34,9,0.12000000000000455,17693,232.8
35,18,0.23999999999998067,17711,233.04
36,18,0.2400000000000091,17729,233.28
37,5,0.060000000000002274,17734,233.34
38,5,0.06999999999999318,17739,233.41
39,8,0.09999999999999432,17747,233.51
40,6,0.0800000000000125,17753,233.59
41,2,0.030000000000001137,17755,233.62
42,9,0.12000000000000455,17764,233.74
43,16,0.20999999999997954,17780,233.95
44,17,0.21999999999999886,17797,234.17
45,49,0.6500000000000057,17846,234.82
46,33,0.4300000000000068,17879,235.25
47,194,2.5500000000000114,18073,237.8
48,371,4.8799999999999955,18444,242.68
49,424,5.579999999999984,18868,248.26
50,581,7.650000000000006,19449,255.91
51,763,10.039999999999992,20212,265.95
52,1036,13.629999999999995,21248,279.58
