year,month,day,pcr_positive,pcr_tests,discharged,deaths,coded_time
2020,2,8,-999,-999,0,0,38
2020,2,9,-999,-999,0,0,39
2020,2,10,-999,-999,0,0,40
2020,2,11,-999,-999,0,0,41
2020,2,12,-999,-999,0,0,42
2020,2,13,-999,-999,0,0,43
2020,2,14,-999,-999,0,0,44
2020,2,15,-999,-999,0,0,45
2020,2,16,-999,-999,0,0,46
2020,2,17,-999,-999,0,0,47
2020,2,18,-999,-999,0,0,48
2020,2,19,-999,-999,0,0,49
2020,2,20,-999,-999,0,0,50
2020,2,21,-999,-999,0,0,51
2020,2,22,-999,-999,0,0,52
2020,2,23,-999,-999,0,0,53
2020,2,24,-999,-999,0,0,54
2020,2,25,-999,-999,0,0,55
2020,2,26,-999,-999,0,0,56
2020,2,27,-999,-999,0,0,57
2020,2,28,-999,-999,0,0,58
2020,2,29,-999,-999,0,0,59
2020,3,1,-999,-999,0,0,60
2020,3,2,-999,-999,0,0,61
2020,3,3,-999,-999,0,0,62
2020,3,4,-999,-999,0,0,63
2020,3,5,-999,-999,0,0,64
2020,3,6,-999,-999,0,0,65
2020,3,7,-999,-999,0,0,66
2020,3,8,-999,-999,0,0,67
2020,3,9,-999,-999,0,0,68
2020,3,10,-999,-999,0,0,69
2020,3,11,-999,-999,0,0,70
2020,3,12,-999,-999,0,0,71
2020,3,13,-999,-999,0,0,72
2020,3,14,-999,-999,0,0,73
2020,3,15,-999,-999,0,0,74
2020,3,16,-999,-999,0,0,75
2020,3,17,-999,-999,0,0,76
2020,3,18,-999,-999,0,0,77
2020,3,19,-999,-999,0,0,78
2020,3,20,-999,-999,0,0,79
2020,3,21,-999,-999,0,0,80
2020,3,22,-999,-999,0,0,81
2020,3,23,-999,-999,0,0,82
2020,3,24,-999,-999,0,0,83
2020,3,25,-999,-999,0,0,84
2020,3,26,4,3,0,0,85
2020,3,27,-999,-999,0,0,86
2020,3,28,-999,-999,0,0,87
2020,3,29,-999,-999,0,0,88
2020,3,30,-999,-999,0,0,89
2020,3,31,-999,-999,0,0,90
2020,4,1,6,0,0,0,91
2020,4,2,-999,-999,0,1,92
2020,4,3,-999,-999,0,0,93
2020,4,4,4,3,0,0,94
2020,4,5,-999,-999,0,1,95
2020,4,6,-999,-999,1,0,96
2020,4,7,-999,-999,0,0,97
2020,4,8,-999,-999,0,0,98
2020,4,9,-999,-999,2,0,99
2020,4,10,-999,-999,3,0,100
2020,4,11,10,4,0,0,101
2020,4,12,2,0,0,0,102
2020,4,13,-999,-999,1,0,103
2020,4,14,-999,-999,1,0,104
2020,4,15,-999,-999,0,0,105
2020,4,16,-999,-999,0,0,106
2020,4,17,-999,-999,0,0,107
2020,4,18,2,0,0,2,108
2020,4,19,6,0,15,0,109
2020,4,20,-999,-999,3,0,110
2020,4,21,-999,-999,0,0,111
2020,4,22,-999,-999,0,0,112
2020,4,23,-999,-999,0,1,113
2020,4,24,-999,-999,7,0,114
2020,4,25,-999,-999,0,0,115
2020,4,26,1,0,0,0,116
2020,4,27,-999,-999,30,1,117
2020,4,28,-999,-999,0,0,118
2020,4,29,-999,-999,1,1,119
2020,4,30,-999,-999,5,1,120
2020,5,1,-999,-999,0,0,121
2020,5,2,-999,-999,6,0,122
2020,5,3,-999,-999,0,0,123
2020,5,4,-999,-999,3,0,124
2020,5,5,-999,-999,0,0,125
2020,5,6,-999,-999,6,0,126
2020,5,7,-999,-999,0,0,127
2020,5,8,-999,-999,5,0,128
2020,5,9,-999,-999,4,0,129
2020,5,10,-999,-999,1,0,130
2020,5,11,-999,-999,1,0,131
2020,5,12,-999,-999,1,0,132
2020,5,13,-999,-999,2,0,133
2020,5,14,-999,-999,0,0,134
2020,5,15,-999,-999,1,0,135
2020,5,16,-999,-999,3,0,136
2020,5,17,-999,-999,0,0,137
2020,5,18,-999,-999,2,0,138
2020,5,19,-999,-999,0,0,139
2020,5,20,-999,-999,1,0,140
2020,5,21,-999,-999,0,0,141
2020,5,22,-999,-999,2,0,142
2020,5,23,-999,-999,1,0,143
2020,5,24,-999,-999,1,0,144
2020,5,25,-999,-999,0,0,145
2020,5,26,-999,-999,0,0,146
2020,5,27,-999,-999,0,0,147
2020,5,28,-999,-999,0,0,148
2020,5,29,-999,-999,0,0,149
2020,5,30,-999,-999,0,0,150
2020,5,31,-999,-999,1,0,151
2020,6,1,-999,-999,2,0,152
2020,6,2,-999,-999,0,0,153
2020,6,3,-999,-999,0,0,154
2020,6,4,-999,-999,0,0,155
2020,6,5,-999,-999,0,0,156
2020,6,6,-999,-999,1,0,157
2020,6,7,-999,-999,0,0,158
2020,6,8,-999,-999,0,0,159
2020,6,9,-999,-999,0,0,160
2020,6,10,-999,-999,0,0,161
2020,6,11,-999,-999,0,0,162
2020,6,12,-999,-999,0,0,163
2020,6,13,-999,-999,0,0,164
2020,6,14,-999,-999,0,0,165
2020,6,15,-999,-999,1,0,166
2020,6,16,-999,-999,0,0,167
2020,6,17,-999,-999,0,0,168
2020,6,18,-999,-999,0,0,169
2020,6,19,-999,-999,0,0,170
2020,6,20,-999,-999,0,0,171
2020,6,21,-999,-999,0,0,172
2020,6,22,-999,-999,0,0,173
2020,6,23,-999,-999,0,0,174
2020,6,24,-999,-999,0,0,175
2020,6,25,-999,-999,0,0,176
2020,6,26,-999,-999,0,0,177
2020,6,27,-999,-999,0,0,178
2020,6,28,-999,-999,0,0,179
2020,6,29,-999,-999,0,0,180
2020,6,30,-999,-999,0,0,181
2020,7,1,-999,-999,0,0,182
2020,7,2,-999,-999,0,0,183
2020,7,3,-999,-999,0,0,184
2020,7,4,-999,-999,0,0,185
2020,7,5,-999,-999,0,0,186
2020,7,6,-999,-999,0,0,187
2020,7,7,-999,-999,0,0,188
2020,7,8,-999,-999,0,0,189
2020,7,9,-999,-999,0,0,190
2020,7,10,-999,-999,0,0,191
2020,7,11,-999,-999,0,0,192
2020,7,12,-999,-999,0,0,193
2020,7,13,-999,-999,0,0,194
2020,7,14,-999,-999,0,0,195
2020,7,15,-999,-999,0,0,196
2020,7,16,-999,-999,0,0,197
2020,7,17,-999,-999,0,0,198
2020,7,18,-999,-999,0,0,199
2020,7,19,-999,-999,0,0,200
2020,7,20,-999,-999,0,0,201
2020,7,21,-999,-999,1,0,202
2020,7,22,-999,-999,0,0,203
2020,7,23,-999,-999,0,0,204
2020,7,24,-999,-999,0,0,205
2020,7,25,-999,-999,2,0,206
2020,7,26,-999,-999,0,0,207
2020,7,27,-999,-999,0,0,208
2020,7,28,-999,-999,0,0,209
2020,7,29,-999,-999,0,0,210
2020,7,30,-999,-999,0,0,211
2020,7,31,-999,-999,0,0,212
2020,8,1,-999,-999,0,0,213
2020,8,2,-999,-999,1,0,214
2020,8,3,-999,-999,0,0,215
2020,8,4,-999,-999,0,0,216
2020,8,5,-999,-999,3,0,217
2020,8,6,-999,-999,2,0,218
2020,8,7,-999,-999,2,0,219
2020,8,8,-999,-999,3,0,220
2020,8,9,-999,-999,0,0,221
2020,8,10,-999,-999,0,0,222
2020,8,11,-999,-999,0,0,223
2020,8,12,-999,-999,4,0,224
2020,8,13,-999,-999,2,0,225
2020,8,14,-999,-999,2,0,226
2020,8,15,-999,-999,2,0,227
2020,8,16,-999,-999,2,0,228
2020,8,17,-999,-999,1,0,229
2020,8,18,-999,-999,0,0,230
2020,8,19,-999,-999,0,0,231
2020,8,20,-999,-999,0,0,232
2020,8,21,-999,-999,0,0,233
2020,8,22,-999,-999,1,0,234
2020,8,23,-999,-999,0,0,235
2020,8,24,-999,-999,3,0,236
2020,8,25,-999,-999,0,0,237
2020,8,26,-999,-999,0,0,238
2020,8,27,-999,-999,2,0,239
2020,8,28,-999,-999,0,0,240
2020,8,29,-999,-999,1,0,241
2020,8,30,-999,-999,1,0,242
2020,8,31,-999,-999,3,0,243
2020,9,1,-999,-999,2,0,244
2020,9,2,-999,-999,2,0,245
2020,9,3,-999,-999,4,0,246
2020,9,4,-999,-999,0,0,247
2020,9,5,-999,-999,3,0,248
2020,9,6,-999,-999,5,0,249
2020,9,7,-999,-999,3,0,250
2020,9,8,-999,-999,10,0,251
2020,9,9,-999,-999,3,0,252
2020,9,10,-999,-999,0,0,253
2020,9,11,-999,-999,0,0,254
2020,9,12,-999,-999,6,0,255
2020,9,13,-999,-999,4,0,256
2020,9,14,-999,-999,3,0,257
2020,9,15,-999,-999,13,0,258
2020,9,16,-999,-999,3,0,259
2020,9,17,-999,-999,2,1,260
2020,9,18,-999,-999,0,0,261
2020,9,19,-999,-999,3,0,262
2020,9,20,-999,-999,2,0,263
2020,9,21,-999,-999,1,1,264
2020,9,22,-999,-999,2,0,265
2020,9,23,-999,-999,1,0,266
2020,9,24,-999,-999,4,0,267
2020,9,25,-999,-999,0,0,268
2020,9,26,-999,-999,1,0,269
2020,9,27,-999,-999,0,1,270
2020,9,28,-999,-999,0,0,271
2020,9,29,-999,-999,0,0,272
2020,9,30,-999,-999,0,0,273
2020,10,1,-999,-999,1,0,274
2020,10,2,-999,-999,0,0,275
2020,10,3,-999,-999,1,0,276
2020,10,4,-999,-999,0,0,277
2020,10,5,-999,-999,0,0,278
2020,10,6,-999,-999,0,0,279
2020,10,7,-999,-999,2,0,280
