-999, -999
-999, -999
-999, -999
-999, -999
-999, -999
-999, -999
-999, -999
-999, -999
-999, -999
-999, -999
-999, -999
-999, -999
-999, -999
-999, -999
53, 100
56, 108
64, 145
77, 222
93, 317
110, 419
128, 524
146, 625
167, 717
192, 788
219, 828
238, 876
259, 984
284, 1134
310, 1304
337, 1484
365, 1668
393, 1856
423, 2047
454, 2242
490, 2447
525, 2688
539, 3006
566, 3245
606, 3424
648, 3593
683, 3803
704, 4061
725, 4284
749, 4646
768, 4879
778, 5028
786, 5163
793, 5512
801, 5636
806, 5753
810, 6141
816, 6763
824, 7508
833, 8307
842, 9124
851, 9934
860, 10707
869, 11391
876, 11882
880, 12065
882, 12061
884, 11980
886, 11891
887, 11855
888, 11966
890, 12272
898, 12529
898, 12773
900, 12955
900, 13050
901, 13155
904, 13345
904, 13586
904, 13742
904, 13872
904, 13978
904, 14057
905, 14122
906, 14284
906, 14428
907, 14547
909, 14688
909, 14814
906, 14881
907, 14929
907, 15076
904, 15225
904, 15358
907, 15494
907, 15658
910, 15743
912, 15813
915, 15991
918, 16146
919, 16310
919, 16476
919, 16716
919, 16716
920, 16770
922, 16898
922, 17021
924, 17122
924, 17230
926, 17317
929, 17374
933, 17416
937, 17597
941, 17723
946, 17898
949, 18047
949, 18047
960, 18287
967, 18355
978, 18548
987, 18715
1003, 18877
1010, 19089
1019, 19276
1030, 19367
1040, 19479
1062, 19698
1074, 20087
1088, 20335
1119, 20693
1137, 20924
1162, 21193
1191, 21490
1223, 21977
1223, 21977
1276, 23084
1300, 23565
-999, -999
