-999, -999
75, 1524
77, 1582
81, 1611
86, 1637
93, 1674
102, 1743
111, 1848
118, 1897
129, 1912
136, 1935
142, 1970
151, 2017
173, 2087
214, 2182
260, 2269
300, 2412
364, 2656
436, 2987
448, 3028
526, 3173
593, 3337
691, 3806
791, 4172
888, 4418
986, 4624
1090, 4837
1214, 5111
1370, 5477
1553, 5821
1752, 6183
1920, 6486
2067, 6746
2205, 6989
2344, 7229
2492, 7478
2663, 7754
2869, 8083
3055, 8442
3164, 8746
3265, 9042
3388, 9209
3511, 9470
3645, 9962
3815, 10282
3934, 10599
4016, 10912
4057, 11210
4170, 11337
4217, 11573
4276, 12073
4441, 12380
4597, 12679
4690, 13157
4777, 13424
4834, 13568
4871, 13673
4894, 14804
4933, 16027
4969, 16991
4991, 17619
5006, 18811
5034, 20230
5044, 21591
5074, 23065
5083, 24379
5097, 25210
5102, 25624
5112, 26742
5117, 27916
5122, 29000
5133, 30076
5136, 31202
5138, 31763
5152, 32124
5160, 33078
5170, 34182
5180, 35287
5195, 36397
5217, 37603
5231, 38216
5236, 38605
5249, 40102
5283, 41631
5295, 43325
5323, 45111
5343, 47107
5369, 48294
5383, 48735
5396, 50580
5408, 52491
5426, 54489
5448, 56391
5473, 58617
5497, 59795
5544, 60299
5592, 62300
5619, 64212
5633, 66158
5674, 68110
5709, 70298
5748, 71459
5783, 71887
5812, 73978
5840, 75958
5895, 78053
5943, 80066
5997, 82437
6054, 83893
6114, 84462
6171, 86908
6225, 89341
6292, 91863
6399, 94383
6523, 97363
6654, 99040
6765, 99912
6867, 103048
6973, 105982
7048, 109386
7272, 112543
7515, 115915
7721, 117754
7881, 119250
8022, 120915
8169, 122960
8354, 125898
8640, 130595
-999, -999
-999, -999
-999, -999
-999, -999
