-999, -999
14, 996
14, 1008
14, 1022
14, 1040
14, 1059
15, 1076
15, 1090
16, 1102
17, 1110
17, 1112
17, 1118
17, 1305
17, 1316
17, 1374
17, 1405
17, 1419
17, 1431
17, 1433
17, 1452
17, 1479
18, 1509
19, 1540
21, 1571
22, 1600
24, 1631
26, 1663
28, 1702
29, 1750
30, 1804
30, 1861
31, 1920
32, 1980
33, 2045
35, 2119
37, 2197
38, 2239
39, 2263
40, 2274
46, 2312
46, 2339
47, 2381
49, 2422
50, 2454
51, 2525
54, 2625
56, 2732
59, 2837
60, 2904
60, 2906
62, 3033
62, 3077
62, 3077
62, 3077
62, 3077
62, 3077
62, 3077
62, 3283
62, 3310
62, 3339
62, 3364
62, 3369
63, 3392
63, 3424
63, 3450
63, 3477
63, 3504
63, 3529
63, 3540
63, 3554
63, 3573
63, 3586
63, 3602
63, 3612
63, 3624
63, 3630
63, 3633
63, 3651
63, 3657
63, 3669
63, 3684
63, 3701
63, 3708
63, 3713
63, 3733
63, 3743
63, 3759
63, 3768
63, 3787
63, 3790
63, 3797
63, 3815
63, 3824
63, 3831
63, 3840
63, 3853
63, 3856
63, 3859
63, 3868
63, 3874
63, 3883
63, 3891
63, 3897
63, 3901
64, 3904
64, 3918
64, 3938
64, 3955
64, 3962
64, 3978
64, 3979
64, 3987
64, 4005
64, 4029
64, 4042
64, 4054
64, 4066
64, 4070
64, 4077
64, 4095
66, 4106
71, 4318
75, 4413
80, 4515
83, 4556
84, 4578
84, 4703
84, 4826
87, 4864
89, 4929
89, 4984
-999, -999
